%!PS-Adobe-2.0
%%BoundingBox: 0 0 612 792
%%Title: abc/CatfishJohn.abc
%%Creator: abcm2ps-8.14.9
%%CreationDate: Nov 17, 2020 22:12
%%Pages: (atend)
%%LanguageLevel: 3
%%EndComments
%CommandLine: -O ps/CatfishJohn.ps -i abc/CatfishJohn.abc

%%BeginSetup
/!{bind def}bind def
/bdef{bind def}!
/T/translate load def
/M/moveto load def
/RM/rmoveto load def
/L/lineto load def
/RL/rlineto load def
/C/curveto load def
/RC/rcurveto load def
/SLW/setlinewidth load def
/defl 0 def
/dlw{0.7 SLW}!
/creator [(abcm2ps) 8 14 9] def
/xydef{/y exch def/x exch def}!
/xymove{/x 2 index def/y 1 index def M}!
/showc{dup stringwidth pop .5 mul neg 0 RM show}!
/showr{dup stringwidth pop neg 0 RM show}!
/showb{	dup currentpoint 3 -1 roll show
	.6 SLW
	exch 2 sub exch 3 sub 3 -1 roll
	stringwidth pop 4 add
	currentfont/ScaleMatrix get 0 get .8 mul
	4 add rectstroke}!
/oct{/Times-Roman 12 selectfont M(8)show}!
/octu{oct}!
/octl{oct}!
/bm{	M 3 copy RL neg 0 exch RL neg exch neg exch RL 0 exch RL fill}!
/bnum{M/Times-Italic 12 selectfont showc}!
/bnumb{	currentgray/Times-Italic 12 selectfont
	3 index stringwidth pop 4 add
	dup .5 mul neg 4 index add 3 index 3 -1 roll 8
	1.0 setgray rectfill setgray M showc}!
/tubr{3 sub M 0 3 RL RL 0 -3 RL dlw stroke}!
/tubrl{3 add M 0 -3 RL RL 0 3 RL dlw stroke}!
/dt{x y M RM currentpoint 1.2 0 360 arc fill}!
/dnb{	dlw M -3.2 2 RM
	0 7.2 RL
	6.4 0 RM
	0 -7.2 RL
	currentpoint stroke M
	-6.4 4.8 RM
	0 2.4 RL
	6.4 0 RL
	0 -2.4 RL
	fill}!
/upb{	dlw M -2.6 9.4 RM
	2.6 -8.8 RL
	2.6 8.8 RL
	stroke}!
/grm{	M -5 2.5 RM
	5 8.5 5.5 -4.5 10 2 RC
	-5 -8.5 -5.5 4.5 -10 -2 RC fill}!
/stc{	3 add M currentpoint 1.2 0 360 arc fill}!
/emb{	1.2 SLW 1 setlinecap M -2.5 3 RM 5 0 RL stroke 0 setlinecap}!
/cpu{	M -6 0 RM
	0.4 7.3 11.3 7.3 11.7 0 RC
	-1.3 6 -10.4 6 -11.7 0 RC fill}!
/sld{	M -7.2 -4.8 RM
	1.8 -0.7 4.5 0.2 7.2 4.8 RC
	-2.1 -5 -5.4 -6.8 -7.6 -6 RC fill}!
/trl{	/Times-BoldItalic 16 selectfont M -4 2 RM(tr)show}!
/fng{/Bookman-Demi 8 selectfont M -3 1 RM show}!
/dacs{/Times-Roman 16 selectfont 3 add M showc}!
/crdc{/Times-Italic 14 selectfont 5 add M show}!
/brth{/Times-BoldItalic 30 selectfont 6 add M(,)show}!
/pf{/Times-BoldItalic 16 selectfont 5 add M show}!
/sfz{	M -7 5 RM pop
	/Times-Italic 14 selectfont(s)show
	/Times-BoldItalic 16 selectfont(f)show
	/Times-Italic 14 selectfont(z)show}!
/cresc{	1 SLW M dup 5 RM
	defl 1 and 0 eq
	{dup neg 4 RL 4 RL}
	{dup neg 2.2 RL 0 3.6 RM 2.2 RL}
	ifelse stroke}!
/dim{	1 SLW 5 add M
	defl 2 and 0 eq
	{dup 4 RL neg 4 RL}
	{dup 2.2 RL 0 3.6 RM neg 2.2 RL}
	ifelse stroke}!
/o8va{	M
	defl 1 and 0 eq
	{14 sub currentpoint
	-5 0 RM /Times-BoldItalic 12 selectfont(8)show
	0 4 RM /Times-BoldItalic 10 selectfont(va)show
	M 14 0 RM}if 0 6 RM
	[6] 0 setdash 5 sub 0 RL currentpoint stroke [] 0 setdash
	M defl 2 and 0 eq
	{0 -6 RL stroke}if}!
/o8vb{	M
	defl 1 and 0 eq
	{8 sub currentpoint
	-5 0 RM /Times-BoldItalic 12 selectfont(8)show
	0 4 RM /Times-BoldItalic 10 selectfont(vb)show
	M 8 0 RM}if
	[6] 0 setdash 5 sub 0 RL currentpoint stroke [] 0 setdash
	M defl 2 and 0 eq
	{0 6 RL stroke}if}!
/dplus{	1.2 SLW 0.5 add M 0 6 RL -3 -3 RM 6 0 RL stroke}!
/turnx{	2 copy turn .6 SLW 1.5 add M 0 9 RL stroke}!
/lphr{1.2 SLW M 0 -18 RL stroke}!
/mphr{1.2 SLW M 0 -12 RL stroke}!
/sphr{1.2 SLW M 0 -6 RL stroke}!
/ltr{	gsave 4 add T
	0 6 3 -1 roll{
		2{
			0 0.4 M
			2 1.9 3.4 2.3 3.9 0 C
			2.1 0 L
			1.9 0.8 1.4 0.7 0 -0.4 C
			fill
			180 rotate -6 0 T
		}repeat
		pop 6 0 T
	}for
	grestore}!
/arp{gsave 90 rotate exch neg ltr grestore}!
/gliss{	gsave 2 copy T
exch 4 -1 roll exch sub 3 1 roll sub
2 copy exch atan dup rotate
exch pop cos div
8 0 M 14 sub 0 RL stroke grestore}!
/glisq{	gsave 2 copy T
exch 4 -1 roll exch sub 3 1 roll sub
2 copy exch atan dup rotate
exch pop cos div
17 sub 8 -4 ltr grestore}!
/wedge{1 add M -1.5 5 RL 3 0 RL -1.5 -5 RL fill}!
/opend{dlw M currentpoint 3 add 2.5 -90 270 arc stroke}!
/snap{	dlw 2 copy M -3 6 RM
	0 5 6 5 6 0 RC
	0 -5 -6 -5 -6 0 RC
	5 add M 0 -6 RL stroke}!
/thumb{	dlw 2 copy M -2.5 7 RM
	0 6 5 6 5 0 RC
	0 -6 -5 -6 -5 0 RC
	2 add M 0 -4 RL stroke}!
/trem{	M -4.5 0 RM{
		currentpoint
		9 3 RL 0 -3 RL -9 -3 RL 0 3 RL
		fill 5.4 sub M
	}repeat}!
/hl{	.8 SLW M -6 0 RM 12 0 RL stroke}!
/hl1{	.8 SLW M -7 0 RM 14 0 RL stroke}!
/hl2{	.7 SLW M -9 0 RM 18 0 RL stroke}!
/gsc{gsave y T .8 dup scale 0 0}!
/uflat{<95200028
	0064000001b802ee
	006402ea
	008402ea
	0084000c
	00640008
	00840154
	00b2019c011c01ae01540168
	01b800fa00dc00220084000c
	00840028
	00ba0028014c00f60106014a
	00d401860084014e00840128
	><0b00010303030a0105050105050a>}cvlit def
/unat{<95200022
	003cff42013602ee
	006002ee
	004002ee
	00400022
	0060002a
	01160060
	0116ff46
	0136ff46
	01360208
	011401fe
	006001cc
	006002ee
	0060009e
	0060015c
	01160190
	011600d4
	><0b00012a030a0123030a>}cvlit def
/usharp{<95200024
	003cff42019a02ee
	008802be
	0088ff44
	00a8ff44
	00a802be
	0128ff76
	0148ff76
	014802ee
	012802ee
	004001d0
	0040015c
	019201bc
	01920230
	00400076
	00400002
	01920064
	019200d6
	><0b000123030a0123030a0123030a0123030a>}cvlit def
/udblesharp{<95200046
	003c006e019001c2
	00f0011a
	01180140013a015e018e015e
	018e01be
	012e01be
	012e016a0110014800ea0122
	00c2014800a4016a00a401be
	004401be
	0044015e
	009a015e00bc014000e2011a
	00bc00f4009a00d6004400d6
	00440076
	00a40076
	00a400ca00c200ec00ea0112
	011000ec012e00ca012e0076
	018e0076
	018e00d6
	013a00d6011800f400f0011a
	><0b0001050303050503030505030305050303050a>}cvlit def
/udbleflat{<9520004c
	00140000022602ee
	001402ea
	002c02ea
	002c000c
	00140008
	002c0154
	004e019c009e01ae00c80168
	011300fa00660022002c000c
	002c0028
	0054002800c200f6008d014a
	00680186002c014e002c0128
	010e02ea
	012602ea
	0126000c
	010e0008
	01260154
	0148019c019801ae01c20168
	020d00fa016000220126000c
	01260028
	014e002801bc00f60187014a
	016201860126014e01260128
	><0b000123030a0105050105050a0123030a0105050105050a>}cvlit def
/sh1{	gsave T .9 SLW
	0 -7.8 M 0 15.4 RL stroke
	-1.8 -2.7 M 3.6 1.1 RL 0 -2.2 RL -3.6 -1.1 RL 0 2.2 RL fill
	-1.8 3.7 M 3.6 1.1 RL 0 -2.2 RL -3.6 -1.1 RL 0 2.2 RL fill
	grestore}!
/sh513{	gsave T .8 SLW
	-2.5 -8.7 M 0 15.4 RL
	0 -7.8 M 0 15.4 RL
	2.5 -6.9 M 0 15.4 RL stroke
	-3.7 -3.1 M 7.4 2.2 RL 0 -2.2 RL -7.4 -2.2 RL 0 2.2 RL fill
	-3.7 3.2 M 7.4 2.2 RL 0 -2.2 RL -7.4 -2.2 RL 0 2.2 RL fill
	grestore}!
/ft1{gsave -1 1 scale exch neg exch ft0 grestore}!
/ftx{	-1.4 2.7 RM
	5.7 3.1 5.7 -3.6 0 -6.7 RC
	3.9 4 4 7.6 0 5.8 RC
	currentpoint fill 7.1 add M
	dlw 0 -12.4 RL stroke}!
/ft513{2 copy gsave -1 1 scale exch neg 3 add exch M ftx grestore
	M 1.5 0 RM ftx}!
/sh4tb[/.notdef/sh1/sh0/sh513/dsh0]def
/sh4{sh4tb exch get cvx exec}!
/ft4tb[/.notdef/ft1/ft0/ft513/dft0]def
/ft4{ft4tb exch get cvx exec}!
/bar{M 1 SLW 0 exch RL stroke}!
/dotbar{[5] 0 setdash bar [] 0 setdash}!
/thbar{3 -1 roll 3 exch rectfill}!
/rdots{	2 copy 9 add M currentpoint 1.2 0 360 arc
	15 add M currentpoint 1.2 0 360 arc fill}!
/pmsig{0.3 SLW 12 add M currentpoint 5 0 360 arc stroke}!
/pMsig{2 copy pmsig 12 add M currentpoint 1.3 0 360 arc fill}!
/imsig{0.3 SLW 12 add 2 copy 5 add M 5 60 300 arc stroke}!
/iMsig{2 copy imsig 12 add M currentpoint 1.3 0 360 arc fill}!
/tsig{	1 add M gsave/Times-Bold 16 selectfont 1.2 1 scale
	currentpoint 3 -1 roll showc
	12 add M showc grestore}!
/stsig{	7 add M gsave/Times-Bold 18 selectfont 1.2 1 scale
	showc grestore}!
/sep0{	dlw 0 M 0 RL stroke}!
/bracket{M -5 2 RM currentpoint
	-1.7 2 RM 10.5 -1 12 4.5 12 3.5 RC
	0 -1 -3.5 -5.5 -8.5 -5.5 RC fill
	3 SLW 2 add M
	0 exch neg 8 sub RL currentpoint stroke
	M -1.7 0 RM
	10.5 1 12 -4.5 12 -3.5 RC
	0 1 -3.5 5.5 -8.5 5.5 RC fill}!
/srep{	M -1 -6 RM 11 12 RL 3 0 RL -11 -12 RL -3 0 RL fill}!
/repbra{gsave dlw T 0 -20 M
	0 20 3 index 1 and 1 eq{RL}{RM}ifelse 0
	RL 2 and 2 eq{0 -20 RL}if stroke
	4 exch M show grestore}!
/SL{M RC RL RC closepath fill}!
/dSL{	M [4] 0 setdash .8 SLW RC stroke [] 0 setdash}!
/strw{	gsave 0 -2000 M/strop/show load def 1 setgray str
	0 setgray currentpoint pop/w exch def grestore}!
/jshow{w 0 32 4 -1 roll widthshow}!
/strop/show load def
/arrayshow{{dup type/stringtype eq{strop}{glyphshow}ifelse}forall}def
/gcshow{show}!
/agcshow{arrayshow}!
/box{.6 SLW rectstroke}!
/boxend{currentpoint pop/x exch def}!
/boxmark{currentpoint pop dup x gt
	{/x exch def}{pop}ifelse}!
/boxdraw{x 3 index sub 2 add exch box}!
/gxshow{0 9 3 -1 roll widthshow}!
/anshow{show}!
/aanshow{arrayshow}!
/wln{M .8 SLW 0 RL stroke}!
/hyph{	.8 SLW 3 add M
	dup cvi 20 idiv 3 mul 25 add
	1 index cvi exch idiv 1 add exch 1 index div
	dup 4 sub 3 1 roll .5 mul 2 sub 0 RM
	{4 0 RL dup 0 RM}repeat stroke pop}!
/lyshow{show}!
/alyshow{arrayshow}!
/pfthd{/x 2 index def/y 1 index def dsh0
	.7 SLW x y M x y 4 0 360 arc stroke}!
/pdshhd{pshhd}!
/pdfthd{pfthd}!
/ghd{	xymove
	1.7 1.5 RM
	-1.32 2.31 -5.94 -0.33 -4.62 -2.64 RC
	1.32 -2.31 5.94 0.33 4.62 2.64 RC fill}!
/gua{x y M -1 4 RM RL stroke}!
/gda{x y M -5 -4 RM RL stroke}!
/ghl{	.6 SLW M -3.5 0 RM 7 0 RL stroke}!
/gsl{dlw M RC stroke}!
/custos{2 copy M -4 0 RM 2 2.5 RL 2 -2.5 RL 2 2.5 RL 2 -2.5 RL
	-2 -2.5 RL -2 2.5 RL -2 -2.5 RL -2 2.5 RL fill
	M 3.5 0 RM 5 7 RL dlw stroke}!
/glypharray{{glyphshow}forall}!
/showerror{gsave 1 0.7 0.7 setrgbcolor 2.5 SLW newpath
	30 0 360 arc stroke grestore}!
/pdfmark where{pop}{userdict/pdfmark/cleartomark load put}ifelse
0 setlinecap 0 setlinejoin
/hbrce{	-2.5 1 RM
	-4.5 -4.6 -7.5 -12.2 -4.4 -26.8 RC
	3.5 -14.3 3.2 -21.7 -2.1 -24.2 RC
	7.4 2.4 7.3 14.2 3.5 29.5 RC
	-2.7 9.5 -1.5 16.2 3 21.5 RC
	fill}!
/brace{	gsave T 0 0 M .01 mul 1 exch scale hbrce
	0 -100 M 1 -1 scale hbrce grestore}!
/sgno{	3 add M currentpoint currentpoint currentpoint
	1.5 -1.7 6.4 0.3 3 3.7 RC
	-10.4 7.8 -8 10.6 -6.5 11.9 RC
	4 1.9 5.9 -1.7 4.2 -2.6 RC
	-1.3 -0.7 -2.9 1.3 -0.7 2 RC
	-1.5 1.7 -6.4 -0.3 -3 -3.7 RC
	10.4 -7.8 8 -10.6 6.5 -11.9 RC
	-4 -1.9 -5.9 1.7 -4.2 2.6 RC
	1.3 0.7 2.9 -1.3 0.7 -2 RC
	fill
	M 0.8 SLW -6 1.2 RM 12.6 12.6 RL stroke
	7 add exch 6 sub exch 1.2 0 360 arc fill
	8 add exch 6 add exch 1.2 0 360 arc fill}!
/dacoda{2 1 roll 10 add 2 1 roll dup 3 -1 roll dup 3 1 roll -23 add 4 1 roll
	1 SLW 2 add 2 copy M 0 20 RL
	2 copy M -10 10 RM 20 0 RL stroke
	10 add 6 0 360 arc 1.7 SLW stroke
	/Times-Roman 16 selectfont 7 add M (Da) showc}!
/coda{	1 SLW 2 add 2 copy M 0 20 RL
	2 copy M -10 10 RM 20 0 RL 1.1 SLW stroke
	exch -7 add exch (O) 3 1 roll /Times-Bold 18 selectfont 4 add M show}!
/utclef{<95200072
	0000ff2e01c2030c
	00ac0056
	0064007f006400f400e00112
	0176011c01bc0056013a0012
	00c8ffde002700120015009a
	0006014f0072017f00f101e8
	0149023f0140026d012f02ba
	00fc029900d1025100d60200
	00e700f500fa008a0107ffc2
	010dff6200f4ff3c00baff3b
	006aff3a003cff98007dffc0
	00d2ffe90102ff5b009cff57
	00b3ff4600f8ff3200f6ffb3
	00ec009200cf010900c4021c
	00c4027600c402be01240304
	015c02bc0163021e013a01e3
	00f001790039013b003b00a7
	0044000e00cfffee01370022
	018d0063015400e200e700d2
	00a000c6007e008f00ac0056
	><0b000132050a>}cvlit def
/tclef{gsave T -10 -6 T .045 dup scale utclef ufill grestore}!
/ucclef{<95200066
	006effbe01e70256
	00d10108
	00d10002
	00c40002
	00c40213
	00d10213
	00d10113
	00ea012700fa013701100180
	011e0161011d014d0148013a
	01a2011801a80244011f01f3
	015301e0013a01a3011401a6
	00ba01cc01350256019f01eb
	01e7019c01a000fa01190131
	0109010a
	011900e4
	01a0011b01e70079019f002a
	0135ffbe00ba00490114006f
	013a007201530035011f0022
	01a8ffd101a200fd014800db
	011d00c8011b00bd0110009b
	00fa00e400ea00f400d10108
	006e0213
	00a70213
	00a70002
	006e0002
	006e0213
	><0b000125032605220326050a0124030a>}cvlit def
/cclef{gsave T -12 -12 T .045 dup scale ucclef ufill grestore}!
/ubclef{<95200046
	00000050019a0244
	00010057
	007d007a00df00a500ff0143
	012a022700580239003f01aa
	007a01fa00dc0194009b015c
	005d012d00280172003101b4
	00460241013f023c01430180
	014200d100d9007800010057
	01660151
	016601750199017301990151
	0199012c0166012d01660151
	016401d2
	016401f6019701f4019701d2
	019701ac016401ad016401d2
	><0b000126050a0122050a0122050a>}cvlit def
/bclef{gsave T -10 -18 T .045 dup scale ubclef ufill grestore}!
/pclef{	exch 2.7 sub exch -9 add 5.4 18 1.4 SLW rectstroke}!
/spclef{pclef}!
/stclef{gsave T -10 -6 T .037 dup scale utclef ufill grestore}!
/scclef{gsave T -12 -10 T .037 dup scale ucclef ufill grestore}!
/sbclef{gsave T -10 -15 T .037 dup scale ubclef ufill grestore}!
/csig{	M
	6 5.3 RM
	0.9 0 2.3 -0.7 2.4 -2.2 RC
	-1.2 2 -3.6 -0.1 -1.6 -1.7 RC
	2 -1 3.8 3.5 -0.8 4.7 RC
	-2 0.4 -6.4 -1.3 -5.8 -7 RC
	0.4 -6.4 7.9 -6.8 9.1 -0.7 RC
	-2.3 -5.6 -6.7 -5.1 -6.8 0 RC
	-0.5 4.4 0.7 7.5 3.5 6.9 RC
	fill}!
/ctsig{dlw 2 copy csig M 5 -8 RM 0 16 RL stroke}!
/HDD{	dlw HD
	x y M -6 -4 RM 0 8 RL
	12 0 RM 0 -8 RL stroke}!
/breve{	xymove
	2.5 SLW -6 -2.7 RM 12 0 RL
	0 5.4 RM -12 0 RL stroke
	dlw x y M -6 -5 RM 0 10 RL
	12 0 RM 0 -10 RL stroke}!
/HD{	xymove
	-2.7 1.4 RM
	1.5 2.8 6.9 0 5.3 -2.7 RC
	-1.5 -2.8 -6.9 0 -5.3 2.7 RC
	8.3 -1.4 RM
	0 1.5 -2.2 3 -5.6 3 RC
	-3.4 0 -5.6 -1.5 -5.6 -3 RC
	0 -1.5 2.2 -3 5.6 -3 RC
	3.4 0 5.6 1.5 5.6 3 RC fill}!
/Hd{	xymove
	3 1.6 RM
	-1 1.8 -7 -1.4 -6 -3.2 RC
	1 -1.8 7 1.4 6 3.2 RC
	0.5 0.3 RM
	2 -3.8 -5 -7.6 -7 -3.8 RC
	-2 3.8 5 7.6 7 3.8 RC fill}!
/uhd{{	100 -270 640 280
	560 82
	474 267 105 105 186 -80
	267 -265 636 -102 555 82
	}<0b000122050a>}cvlit def
/hd{	/x 2 index def/y 1 index def
	gsave T -7.4 0 T .02 dup scale uhd ufill grestore}!
/ft0{	gsave T -3.5 -3.5 T .018 dup scale uflat ufill grestore}!
/nt0{	gsave T -3 -5 T .018 dup scale unat ufill grestore}!
/sh0{	gsave T -4 -5 T .018 dup scale usharp ufill grestore}!
/dsh0{	gsave T -4 -5 T .018 dup scale udblesharp ufill grestore}!
/pshhd{/x 2 index def/y 1 index def dsh0}!
/dft0{	gsave T -4 -3.5 T .018 dup scale udbleflat ufill grestore}!
/accent{1.2 SLW M -4 1 RM 8 2 RL -8 2 RL stroke}!
/marcato{M -3 0 RM 3 7 RL 3 -7 RL -1.5 0 RL -1.8 4.2 RL -1.7 -4.2 RL fill}!
/hld{	1.5 add 2 copy 1.5 add M currentpoint 1.3 0 360 arc
	M -7.5 0 RM
	0 11.5 15 11.5 15 0 RC
	-0.25 0 RL
	-1.25 9 -13.25 9 -14.5 0 RC
	fill}!
/r00{	xymove -1.5 -6 RM currentpoint 3 12 rectfill}!
/r0{	xymove -1.5 0 RM currentpoint 3 6 rectfill}!
/r1{	xymove -3.5 3 RM currentpoint 7 3 rectfill}!
/r2{	xymove -3.5 0 RM currentpoint 7 3 rectfill}!
/r4{	xymove
	-1 8.5 RM
	3.6 -5.1 RL
	-2.1 -5.2 RL
	2.2 -4.3 RL
	-2.6 2.3 -5.1 0 -2.4 -2.6 RC
	-4.8 3 -1.5 6.9 1.4 4.1 RC
	-3.1 4.5 RL
	1.9 5.1 RL
	-1.5 3.5 RL
	fill}!
/r8e{	-1.5 -1.5 -2.4 -2 -3.6 -2 RC
	2.4 2.8 -2.8 4 -2.8 1.2 RC
	0 -2.7 4.3 -2.4 5.9 -0.6 RC
	fill}!
/r8{	xymove
	.5 SLW 3.3 4 RM
	-3.4 -9.6 RL stroke
	x y M 3.4 4 RM r8e}!
/r16{	xymove
	.5 SLW 3.3 4 RM
	-4 -15.6 RL stroke
	x y M 3.4 4 RM r8e
	x y M 1.9 -2 RM r8e}!
/r32{	xymove
	.5 SLW 4.8 10 RM
	-5.5 -21.6 RL stroke
	x y M 4.9 10 RM r8e
	x y M 3.4 4 RM r8e
	x y M 1.9 -2 RM r8e}!
/r64{	xymove
	.5 SLW 4.8 10 RM
	-7 -27.6 RL stroke
	x y M 4.9 10 RM r8e
	x y M 3.4 4 RM r8e
	x y M 1.9 -2 RM r8e
	x y M 0.4 -8 RM r8e}!
/r128{	xymove
	.5 SLW 5.8 16 RM
	-8.5 -33.6 RL stroke
	x y M 5.9 16 RM r8e
	x y M 4.4 10 RM r8e
	x y M 2.9 4 RM r8e
	x y M 1.4 -2 RM r8e
	x y M -0.1 -8 RM r8e}!
/mrest{	M currentpoint 1 SLW
	-20 -6 RM 0 12 RL 40 0 RM 0 -12 RL stroke
	M 5 SLW -20 0 RM 40 0 RL stroke}!
/mrep{	2 copy 2 copy
	M -5 3 RM currentpoint 1.4 0 360 arc
	M 5 -3 RM currentpoint 1.4 0 360 arc
	M -7 -6 RM 11 12 RL 3 0 RL -11 -12 RL -3 0 RL fill}!
/mrep2{	2 copy 2 copy
	M -5 6 RM currentpoint 1.4 0 360 arc
	M 5 -6 RM currentpoint 1.4 0 360 arc fill
	M 1.8 SLW
	-7 -8 RM 14 10 RL -14 -4 RM 14 10 RL stroke}!
/turn{	M 5.2 8 RM
	1.4 -0.5 0.9 -4.8 -2.2 -2.8 RC
	-4.8 3.5 RL
	-3 2 -5.8 -1.8 -3.6 -4.4 RC
	1 -1.1 2 -0.8 2.1 0.1 RC
	0.1 0.9 -0.7 1.2 -1.9 0.6 RC
	-1.4 0.5 -0.9 4.8 2.2 2.8 RC
	4.8 -3.5 RL
	3 -2 5.8 1.8 3.6 4.4 RC
	-1 1.1 -2 0.8 -2.1 -0.1 RC
	-0.1 -0.9 0.7 -1.2 1.9 -0.6 RC
	fill}!
/umrd{	4 add M
	2.2 2.2 RL 2.1 -2.9 RL 0.7 0.7 RL
	-2.2 -2.2 RL -2.1 2.9 RL -0.7 -0.7 RL
	-2.2 -2.2 RL -2.1 2.9 RL -0.7 -0.7 RL
	2.2 2.2 RL 2.1 -2.9 RL 0.7 0.7 RL fill}!
/lmrd{	2 copy umrd M .6 SLW 0 8 RL stroke}!
/ped{	/Times-BoldItalic 16 selectfont M -10 2 RM(Ped)show}!
/pedoff{	/Times-BoldItalic 16 selectfont M -4 2 RM(*)show}!
/longa{	xymove
	2.5 SLW -6 -2.7 RM 12 0 RL
	0 5.4 RM -12 0 RL stroke
	dlw x y M -6 -5 RM 0 10 RL
	12 0 RM 0 -16 RL stroke}!
/su{dlw x y M 3.5 1.0 RM 1.0 sub 0 exch RL stroke}!
/sd{dlw x y M -3.5 -1.0 RM 1.0 add 0 exch RL stroke}!
/sfu{	dlw x y M 3.5 1.0 RM
	1.0 sub 0 exch RL currentpoint stroke
	M dup 1 eq{
		pop
		0.6 -5.6 9.6 -9 5.6 -18.4 RC
		1.6 6 -1.3 11.6 -5.6 12.8 RC fill
	  }{
		1 sub{	currentpoint
			0.9 -3.7 9.1 -6.4 6 -12.4 RC
			1 5.4 -4.2 8.4 -6 8.4 RC
			fill 5.4 sub M
		}repeat
		1.2 -3.2 9.6 -5.7 5.6 -14.6 RC
		1.6 5.4 -1 10.2 -5.6 11.4 RC fill
	  }ifelse}!
/sfd{	dlw x y M -3.5 -1.0 RM
	1.0 add 0 exch RL currentpoint stroke
	M dup 1 eq{
		pop
		0.6 5.6 9.6 9 5.6 18.4 RC
		1.6 -6 -1.3 -11.6 -5.6 -12.8 RC fill
	  }{
		1 sub{	currentpoint
			0.9 3.7 9.1 6.4 6 12.4 RC
			1 -5.4 -4.2 -8.4 -6 -8.4 RC
			fill 5.4 add M
		}repeat
		1.2 3.2 9.6 5.7 5.6 14.6 RC
		1.6 -5.4 -1 -10.2 -5.6 -11.4 RC fill
	  }ifelse}!
/sfs{	dup 0 lt{
		dlw x y M -3.5 -1.0 RM
		1.0 add 0 exch RL currentpoint stroke
		M{	currentpoint
			7 3.2 RL
			0 3.2 RL
			-7 -3.2 RL
			fill 5.4 add M
		}repeat
	}{
		dlw x y M 3.5 1.0 RM
		1.0 sub 0 exch RL currentpoint stroke
		M{	currentpoint
			7 -3.2 RL
			0 -3.2 RL
			-7 3.2 RL
			fill 5.4 sub M
		}repeat
	}ifelse}!
/gu{	.6 SLW x y M
	2.3 0 RM 0 exch RL stroke}!
/gd{	.6 SLW x y M
	-2.3 0 RM 0 exch RL stroke}!
/sgu{	.6 SLW x y M 2.3 0 RM
	0 exch RL currentpoint stroke
	M dup 1 eq{
		pop
		0.6 -3.4 5.6 -3.8 3 -10 RC
		1.2 4.4 -1.4 7 -3 7 RC fill
	  }{
		{	currentpoint
			1 -3.2 5.6 -2.8 3.2 -8 RC
			1.4 4.8 -2.4 5.4 -3.2 5.2 RC
			fill 3.5 sub M
		}repeat
	  }ifelse}!
/sgd{	.6 SLW x y M -2.3 0 RM
	0 exch RL currentpoint stroke
	M dup 1 eq{
		pop
		0.6 3.4 5.6 3.8 3 10 RC
		1.2 -4.4 -1.4 -7 -3 -7 RC fill
	  }{
		{	currentpoint
			1 3.2 5.6 2.8 3.2 8 RC
			1.4 -4.8 -2.4 -5.4 -3.2 -5.2 RC
			fill 3.5 add M
		}repeat
	  }ifelse}!
/sgs{	.6 SLW x y M 2.3 0 RM
	0 exch RL currentpoint stroke
	M{	currentpoint
		3 -1.5 RL 0 -2 RL -3 1.5 RL
		closepath fill 3 sub M
	}repeat}!
/mkfont{findfont dup length 1 add dict begin
	{1 index/FID ne{def}{pop pop}ifelse}forall
	CharStrings/double_sharp known not{
	    /CharStrings CharStrings dup length dict copy def
	    FontMatrix 0 get 1 eq{
		CharStrings/sharp{pop .46 0 setcharwidth .001 dup scale usharp ufill}bind put
		CharStrings/flat{pop .46 0 setcharwidth .001 dup scale uflat ufill}bind put
		CharStrings/natural{pop .40 0 setcharwidth .001 dup scale unat ufill}bind put
		CharStrings/double_sharp{pop .46 0 setcharwidth .001 dup scale udblesharp ufill}bind put
		CharStrings/double_flat{pop .50 0 setcharwidth .001 dup scale udbleflat ufill}bind put
	    }{
		CharStrings/sharp{pop 460 0 setcharwidth usharp ufill}bind put
		CharStrings/flat{pop 460 0 setcharwidth uflat ufill}bind put
		CharStrings/natural{pop 400 0 setcharwidth unat ufill}bind put
		CharStrings/double_sharp{pop 460 0 setcharwidth udblesharp ufill}bind put
		CharStrings/double_flat{pop 500 0 setcharwidth udbleflat ufill}bind put
	    }ifelse
	}if currentdict definefont pop end}!
/Helvetica-utf8/Helvetica mkfont
/F0{/Helvetica-utf8 exch selectfont}!
/Times-Italic-utf8/Times-Italic mkfont
/F1{/Times-Italic-utf8 exch selectfont}!
/Times-Roman-utf8/Times-Roman mkfont
/F2{/Times-Roman-utf8 exch selectfont}!
/Times-Bold-utf8/Times-Bold mkfont
/F3{/Times-Bold-utf8 exch selectfont}!
/setpagedevice where{pop
	<</PageSize[612 792]>>setpagedevice}if
%%EndSetup
%%Page: 1 1
gsave 0.75 dup scale 0 1018.2 T
% --- width 681.6
67.20 0 T
0 -22.00 T
% --- xref 4
0 -26.00 T
% --- title Catfish John
340.8 4.0 M  20.0 F2 (Catfish John)showc
0 -6.00 T
0 -14.00 T
681.6 0 M  14.0 F1 (Bob McDill and Allen Reynolds)showr
0 -6.00 T
% --- font 20.0 F2 
61.5 -17.0 M  15.0 F3 (Allegro)show
gsave 0.70 dup scale 8 3 RM currentpoint hd 1 21 sfu grestore 14.7 0 RM
(= )show
(200)show
/y0{-65.0 add}!
/yns0{-65.0 add}!
24.0 414.4 -65.0 bar 
24.0 681.6 -65.0 bar 
dlw 681.6 0.0 -65.0 M 0 RL 681.6 0.0 -59.0 M 0 RL 681.6 0.0 -53.0 M 0 RL 681.6 0.0 -47.0 M 0 RL 681.6 0.0 -41.0 M 0 RL stroke
12.0 F0 62.7 32.4 yns0 M (D)gcshow
435.6 32.4 yns0 M (G)gcshow
/y{-25.1 yns0}! 103.3 y M  13.0 F3 (Ma-)lyshow
156.9 y M (ma)lyshow
204.7 y M (said)lyshow
315.4 y M (don't)lyshow
371.3 y M (go)lyshow
427.3 y M (near)lyshow
499.0 y M (that)lyshow
568.6 y M (riv-)lyshow
618.4 y M (er)lyshow

12.0 -59.0  tclef
27.0 -41.0 sh0 32.5 -50.0 sh0 
(4)(4) 48.5 -65.0 tsig
66.5 -53.0 r8 
116.4 -41.0 hd 1 -21.0 sfd
166.3 -41.0 hd 1 -21.0 sfd
216.2 -35.0 hl 216.2 -35.0 hd -21.0 sd
279.7 -53.0 r8 
329.6 -44.0 hd 1 -21.0 sfd
379.5 -47.0 hd 1 -21.0 sfd
439.4 -47.0 hd -21.0 sd
509.9 -47.0 hd -21.0 sd
580.5 -53.0 hd 1 -21.0 sfd
625.4 -56.0 hd 7.7 0 dt 21.0 su
0 -94.30 T
/y0{-47.0 add}!
/yns0{-47.0 add}!
24.0 332.8 -47.0 bar 
24.0 596.6 -47.0 bar 
24.0 681.6 -47.0 bar 
dlw 681.6 0.0 -47.0 M 0 RL 681.6 0.0 -41.0 M 0 RL 681.6 0.0 -35.0 M 0 RL 681.6 0.0 -29.0 M 0 RL 681.6 0.0 -23.0 M 0 RL stroke
12.0 F0 46.7 34.4 yns0 M (D)gcshow
527.6 34.4 yns0 M (A7)gcshow
/y{-22.1 yns0}! 79.8 y M  13.0 F3 (Don't)lyshow
132.1 y M (be)lyshow
168.2 y M (hang-)lyshow
246.9 y M (ing)lyshow
284.0 y M ('round)lyshow
390.2 y M (old)lyshow
431.2 y M (Cat-)lyshow
478.4 y M (fish)lyshow
521.0 y M (John)lyshow

12.0 -41.0  tclef
27.0 -23.0 sh0 32.5 -32.0 sh0 
50.5 -35.0 r8 
95.2 -29.0 hd 1 -21.0 sfd
139.9 -29.0 hd 1 -21.0 sfd
184.7 -23.0 hd 7.7 3 dt -21.0 sd
256.6 -23.0 hd 1 -21.0 sfd
301.3 -23.0 hd 1 -21.0 sfd
355.1 -35.0 r8 
399.9 -23.0 hd 1 -21.0 sfd
444.6 -26.0 hd 1 -21.0 sfd
489.3 -29.0 hd 1 -21.0 sfd
534.0 -26.0 Hd -21.0 sd
619.0 -26.0 Hd -21.0 sd
-13.29 7.63 -64.68 7.63 -77.97 -0.28 0 0.28 10.95 5.90 67.02 5.90 77.97 0.00 537.5 -26.0 SL
0 -73.30 T
/y0{-47.0 add}!
/yns0{-47.0 add}!
24.0 407.7 -47.0 bar 
24.0 681.6 -47.0 bar 
dlw 681.6 0.0 -47.0 M 0 RL 681.6 0.0 -41.0 M 0 RL 681.6 0.0 -35.0 M 0 RL 681.6 0.0 -29.0 M 0 RL 681.6 0.0 -23.0 M 0 RL stroke
12.0 F0 46.7 35.4 yns0 M (D)gcshow
429.0 35.4 yns0 M (G)gcshow
/y{-22.1 yns0}! 90.1 y M  13.0 F3 (But)lyshow
136.4 y M (come)lyshow
191.8 y M (the)lyshow
234.0 y M (morn-)lyshow
312.7 y M (ing)lyshow
363.5 y M (I'd)lyshow
423.1 y M (al-)lyshow
489.9 y M (ways)lyshow
566.9 y M (be)lyshow
611.4 y M (there)lyshow

12.0 -41.0  tclef
27.0 -23.0 sh0 32.5 -32.0 sh0 
50.5 -35.0 r8 
100.7 -23.0 hd 1 -21.0 sfd
150.9 -23.0 hd 1 -21.0 sfd
201.2 -20.0 hd 1 -21.0 sfd
251.4 -17.0 hl 251.4 -17.0 hd -21.0 sd
322.4 -17.0 hl 322.4 -14.0 hd 1 -21.0 sfd
372.6 -17.0 hl 372.6 -17.0 hd 1 -21.0 sfd
432.9 -20.0 hd -21.0 sd
503.8 -23.0 hd -21.0 sd
574.8 -26.0 hd 1 -21.0 sfd
625.0 -29.0 hd 7.7 3 dt -21.0 sd
0 -73.30 T
/y0{-47.0 add}!
/yns0{-47.0 add}!
24.0 424.8 -47.0 bar 
24.0 681.6 -47.0 bar 
dlw 681.6 0.0 -47.0 M 0 RL 681.6 0.0 -41.0 M 0 RL 681.6 0.0 -35.0 M 0 RL 681.6 0.0 -29.0 M 0 RL 681.6 0.0 -23.0 M 0 RL stroke
12.0 F0 55.5 32.4 yns0 M (D)gcshow
444.1 32.4 yns0 M (A7)gcshow
610.6 32.4 yns0 M (D)gcshow
/y{-22.1 yns0}! 42.0 y M  13.0 F3 (Walk)lyshow
19.2 78.4 y hyph 97.6 y M (ing)lyshow
148.3 y M (in)lyshow
194.2 y M (his)lyshow
237.0 y M (foot)lyshow
19.8 265.8 y hyph 285.6 y M (steps)lyshow
360.1 y M (in)lyshow
391.6 y M (the)lyshow
435.4 y M (sweet)lyshow
505.9 y M (del-)lyshow
559.7 y M (ta)lyshow
598.5 y M (dawn.)lyshow

12.0 -41.0  tclef
27.0 -23.0 sh0 32.5 -32.0 sh0 
59.3 -29.0 hd 1 -21.0 sfd
107.3 -29.0 hd 1 -21.0 sfd
155.3 -29.0 hd 1 -21.0 sfd
203.3 -26.0 hd 1 -21.0 sfd
251.3 -23.0 hd 1 -21.0 sfd
299.3 -17.0 hl 299.3 -17.0 hd -21.0 sd
367.1 -29.0 hd 2 -23.0 sfd
401.0 -29.0 hd 2 -23.0 sfd
450.6 -23.0 hd -21.0 sd
518.4 -23.0 hd 1 -21.0 sfd
566.4 -26.0 hd 1 -21.0 sfd
614.4 -29.0 Hd -21.0 sd
0 -73.30 T
0 -17.60 T
0.0 0 M 16.0 F2 (Verses)show
0 -6.40 T
/y0{-47.0 add}!
/yns0{-47.0 add}!
24.0 190.4 -47.0 bar 
24.0 494.6 -47.0 bar 
24.0 681.6 -47.0 bar 
dlw 681.6 0.0 -47.0 M 0 RL 681.6 0.0 -41.0 M 0 RL 681.6 0.0 -35.0 M 0 RL 681.6 0.0 -29.0 M 0 RL 681.6 0.0 -23.0 M 0 RL stroke
12.0 F0 46.7 32.4 yns0 M (D)gcshow
214.0 32.4 yns0 M (G)gcshow
520.0 32.4 yns0 M (D)gcshow
/y{-25.1 yns0}! 86.7 y M  13.0 F3 (1. Born)lyshow
153.8 y M (a)lyshow
203.8 y M (slave)lyshow
78.7 234.9 y wln 345.6 y M (in)lyshow
374.9 y M (the)lyshow
404.5 y M (town)lyshow
455.8 y M (of)lyshow
505.6 y M (Vicks)lyshow
12.3 544.3 y hyph 556.6 y M (burg)lyshow

/y{-39.4 yns0}! 86.7 y M (2. Cat)lyshow
21.9 126.1 y hyph 148.0 y M (fish)lyshow
204.7 y M (John)lyshow
80.1 233.5 y wln 341.3 y M (was)lyshow
379.1 y M (a)lyshow
409.0 y M (ri-)lyshow
453.4 y M (ver)lyshow
512.9 y M (ho)lyshow
27.8 533.3 y hyph 561.1 y M (bo)lyshow

/y{-53.7 yns0}! 86.7 y M (3. Let)lyshow
149.5 y M (me)lyshow
201.4 y M (dream)lyshow
75.1 238.5 y wln 345.3 y M (of)lyshow
376.0 y M (a-)lyshow
402.7 y M (noth-)lyshow
456.1 y M (er)lyshow
506.8 y M (morn)lyshow
17.1 542.4 y hyph 559.6 y M (ing)lyshow

12.0 -41.0  tclef
27.0 -23.0 sh0 32.5 -32.0 sh0 
50.5 -35.0 r4 
114.0 -23.0 hd 1 -21.0 sfd
158.9 -26.0 hd 1 -21.0 sfd
217.8 -29.0 Hd -21.0 sd
307.6 -29.0 hd 1 -21.0 sfd
352.5 -29.0 hd 2 -23.0 sfd
384.3 -29.0 hd 2 -23.0 sfd
418.2 -29.0 hd 1 -21.0 sfd
463.1 -29.0 hd 1 -21.0 sfd
523.8 -35.0 hd 1 -21.0 sfd
569.3 -38.0 Hd 21.0 su
650.2 -35.0 r8 
-13.94 7.71 -68.90 7.71 -82.84 -0.28 0 0.28 11.45 5.99 71.39 5.99 82.84 0.00 221.3 -29.0 SL
0 -104.90 T
/y0{-47.0 add}!
/yns0{-47.0 add}!
24.0 158.9 -47.0 bar 
24.0 476.5 -47.0 bar 
24.0 681.6 -47.0 bar 
dlw 681.6 0.0 -47.0 M 0 RL 681.6 0.0 -41.0 M 0 RL 681.6 0.0 -35.0 M 0 RL 681.6 0.0 -29.0 M 0 RL 681.6 0.0 -23.0 M 0 RL stroke
-9.11 5.70 -40.62 4.24 -49.73 -2.35 0 0.25 7.61 4.59 42.11 6.05 49.73 2.10 502.3 27.0 y0 SL
12.0 F0 68.0 33.2 yns0 M (D)gcshow
180.7 33.2 yns0 M (G)gcshow
498.5 33.2 yns0 M (D)gcshow
/y{-22.1 yns0}! 42.0 y M  13.0 F3 (1. Trad-)lyshow
115.1 y M (ed)lyshow
175.4 y M (for)lyshow
98.6 194.3 y wln 333.0 y M (a)lyshow
372.3 y M (chest-)lyshow
430.9 y M (nut)lyshow
488.7 y M (mare)lyshow
37.6 518.9 y wln 
/y{-36.4 yns0}! 42.0 y M (2. Lived)lyshow
112.4 y M (and)lyshow
172.3 y M (died)lyshow
94.1 198.8 y wln 321.9 y M (on the)lyshow
377.5 y M (riv-)lyshow
433.6 y M (er)lyshow
489.0 y M (bend)lyshow
38.0 518.5 y wln 
/y{-50.7 yns0}! 42.0 y M (3. And)lyshow
117.8 y M (a)lyshow
172.0 y M (time)lyshow
93.6 199.3 y wln 330.6 y M (so)lyshow
376.9 y M (long)lyshow
435.4 y M (a)lyshow
494.1 y M (go)lyshow
45.8 510.8 y wln 
12.0 -41.0  tclef
27.0 -23.0 sh0 32.5 -32.0 sh0 
71.8 -23.0 hd 1 -21.0 sfd
123.0 -26.0 hd 1 -21.0 sfd
184.5 -29.0 Hd -21.0 sd
286.9 -29.0 hd 1 -21.0 sfd
338.1 -29.0 hd 1 -21.0 sfd
389.4 -29.0 hd 1 -21.0 sfd
440.6 -29.0 hd 1 -21.0 sfd
502.3 -26.0 hd 1 -21.0 sfd
553.5 -23.0 Hd -21.0 sd
645.7 -35.0 r8 
-15.52 7.92 -79.94 7.92 -95.45 -0.30 0 0.30 12.65 6.22 82.80 6.22 95.45 0.00 188.0 -29.0 SL
0 -101.90 T
/y0{-47.6 add}!
/yns0{-47.6 add}!
24.0 176.9 -47.6 bar 
24.0 481.9 -47.6 bar 
24.0 681.6 -47.6 bar 
dlw 681.6 0.0 -47.6 M 0 RL 681.6 0.0 -41.6 M 0 RL 681.6 0.0 -35.6 M 0 RL 681.6 0.0 -29.6 M 0 RL 681.6 0.0 -23.6 M 0 RL stroke
-6.89 5.86 -29.88 5.86 -36.77 -0.24 0 0.24 5.79 4.10 30.98 4.10 36.77 0.00 64.7 30.0 y0 SL
12.0 F0 60.9 36.0 yns0 M (D)gcshow
200.9 36.0 yns0 M (G)gcshow
506.8 36.0 yns0 M (D)gcshow
/y{-25.1 yns0}! 42.0 y M  13.0 F3 (1. He)lyshow
88.2 y M (nev)lyshow
21.2 114.7 y hyph 135.9 y M (er)lyshow
189.2 y M (spoke)lyshow
83.9 224.1 y wln 345.5 y M (a)lyshow
385.3 y M (word)lyshow
440.9 y M (in)lyshow
496.9 y M (ang-)lyshow
553.0 y M (er)lyshow

/y{-39.4 yns0}! 42.0 y M (2. )lyshow
84.5 y M (Look)lyshow
13.0 120.2 y hyph 133.1 y M (ing)lyshow
191.7 y M (back)lyshow
87.5 220.4 y wln 346.1 y M (I)lyshow
388.3 y M (still)lyshow
437.8 y M (re-)lyshow
494.3 y M (mem)lyshow
21.9 528.4 y hyph 550.3 y M (ber)lyshow

/y{-53.7 yns0}! 42.0 y M (3. )lyshow
85.8 y M (When)lyshow
133.4 y M (the)lyshow
189.5 y M (sweet)lyshow
84.3 223.6 y wln 335.7 y M (mag)lyshow
22.2 366.1 y hyph 388.3 y M (no)lyshow
28.8 408.8 y hyph 437.6 y M (lias)lyshow
496.1 y M (blos)lyshow
17.4 525.7 y hyph 543.0 y M (somed)lyshow

12.0 -41.6  tclef
27.0 -23.6 sh0 32.5 -32.6 sh0 
64.7 -23.6 hd 2 -23.0 sfd
101.5 -23.6 hd 2 -23.0 sfd
142.8 -26.6 hd 1 -21.0 sfd
204.7 -29.6 Hd -21.0 sd
302.0 -29.6 hd 1 -21.0 sfd
350.6 -29.6 hd 1 -21.0 sfd
399.2 -29.6 hd 1 -21.0 sfd
447.9 -29.6 hd 1 -21.0 sfd
510.6 -35.6 hd 1 -21.0 sfd
560.0 -38.6 Hd 21.0 su
647.6 -35.6 r8 
-14.88 7.83 -75.38 7.83 -90.27 -0.29 0 0.29 12.18 6.12 78.09 6.12 90.27 0.00 208.2 -29.6 SL
0 -105.54 T
/y0{-47.0 add}!
/yns0{-47.0 add}!
24.0 177.1 -47.0 bar 
24.0 532.7 -47.0 bar 
24.0 681.6 -47.0 bar 
dlw 681.6 0.0 -47.0 M 0 RL 681.6 0.0 -41.0 M 0 RL 681.6 0.0 -35.0 M 0 RL 681.6 0.0 -29.0 M 0 RL 681.6 0.0 -23.0 M 0 RL stroke
12.0 F0 71.8 32.4 yns0 M (D)gcshow
307.3 32.4 yns0 M (A7)gcshow
560.7 32.4 yns0 M (D)gcshow
/y{-22.1 yns0}! 42.0 y M  13.0 F3 (1. Though)lyshow
126.6 y M (his)lyshow
195.1 y M (load)lyshow
361.7 y M (was)lyshow
419.7 y M (hard)lyshow
484.3 y M (to)lyshow
551.0 y M (bear.)lyshow

/y{-36.4 yns0}! 42.0 y M (2. I)lyshow
124.5 y M (was)lyshow
191.8 y M (proud)lyshow
366.0 y M (to)lyshow
424.2 y M (be)lyshow
482.2 y M (his)lyshow
547.4 y M (friend.)lyshow

/y{-50.7 yns0}! 42.0 y M (3. And the)lyshow
119.3 y M (cotton)lyshow
192.4 y M (fields)lyshow
359.6 y M (were)lyshow
417.3 y M (white)lyshow
484.0 y M (as)lyshow
548.9 y M (snow.)lyshow

12.0 -41.0  tclef
27.0 -23.0 sh0 32.5 -32.0 sh0 
75.7 -29.0 hd 1 -21.0 sfd
135.7 -29.0 hd 1 -21.0 sfd
207.2 -23.0 Hd -21.0 sd
313.8 -35.0 r8 
372.9 -29.0 hd 1 -21.0 sfd
432.1 -26.0 hd 1 -21.0 sfd
491.3 -23.0 hd 1 -21.0 sfd
565.5 -29.0 HD
0 -101.90 T
0 -6.40 T
0 -17.60 T
0 -17.60 T
0.0 0 M 16.0 F2 (Copyright 2020 by Samuel S Chessman)show
0 -17.60 T
0.0 0 M(https://gitlab.com/schessman/abc_songs/)show
0 -17.60 T
0.0 0 M(SPDX-License-Identifier: GPL-3.0-or-later)show
0 -6.40 T
grestore
showpage
%%EndPage: 1 1
%%Trailer
%%Pages: 1
%EOF
