%!PS-Adobe-2.0
%%BoundingBox: 0 0 612 792
%%Title: abc/GreenvilleTrestleHigh.abc
%%Creator: abcm2ps-8.14.9
%%CreationDate: Nov 11, 2020 20:57
%%Pages: (atend)
%%LanguageLevel: 3
%%EndComments
%CommandLine: -O ps/GreenvilleTrestleHigh.ps -i abc/GreenvilleTrestleHigh.abc

%%BeginSetup
/!{bind def}bind def
/bdef{bind def}!
/T/translate load def
/M/moveto load def
/RM/rmoveto load def
/L/lineto load def
/RL/rlineto load def
/C/curveto load def
/RC/rcurveto load def
/SLW/setlinewidth load def
/defl 0 def
/dlw{0.7 SLW}!
/creator [(abcm2ps) 8 14 9] def
/xydef{/y exch def/x exch def}!
/xymove{/x 2 index def/y 1 index def M}!
/showc{dup stringwidth pop .5 mul neg 0 RM show}!
/showr{dup stringwidth pop neg 0 RM show}!
/showb{	dup currentpoint 3 -1 roll show
	.6 SLW
	exch 2 sub exch 3 sub 3 -1 roll
	stringwidth pop 4 add
	currentfont/ScaleMatrix get 0 get .8 mul
	4 add rectstroke}!
/oct{/Times-Roman 12 selectfont M(8)show}!
/octu{oct}!
/octl{oct}!
/bm{	M 3 copy RL neg 0 exch RL neg exch neg exch RL 0 exch RL fill}!
/bnum{M/Times-Italic 12 selectfont showc}!
/bnumb{	currentgray/Times-Italic 12 selectfont
	3 index stringwidth pop 4 add
	dup .5 mul neg 4 index add 3 index 3 -1 roll 8
	1.0 setgray rectfill setgray M showc}!
/tubr{3 sub M 0 3 RL RL 0 -3 RL dlw stroke}!
/tubrl{3 add M 0 -3 RL RL 0 3 RL dlw stroke}!
/dt{x y M RM currentpoint 1.2 0 360 arc fill}!
/dnb{	dlw M -3.2 2 RM
	0 7.2 RL
	6.4 0 RM
	0 -7.2 RL
	currentpoint stroke M
	-6.4 4.8 RM
	0 2.4 RL
	6.4 0 RL
	0 -2.4 RL
	fill}!
/upb{	dlw M -2.6 9.4 RM
	2.6 -8.8 RL
	2.6 8.8 RL
	stroke}!
/grm{	M -5 2.5 RM
	5 8.5 5.5 -4.5 10 2 RC
	-5 -8.5 -5.5 4.5 -10 -2 RC fill}!
/stc{	3 add M currentpoint 1.2 0 360 arc fill}!
/emb{	1.2 SLW 1 setlinecap M -2.5 3 RM 5 0 RL stroke 0 setlinecap}!
/cpu{	M -6 0 RM
	0.4 7.3 11.3 7.3 11.7 0 RC
	-1.3 6 -10.4 6 -11.7 0 RC fill}!
/sld{	M -7.2 -4.8 RM
	1.8 -0.7 4.5 0.2 7.2 4.8 RC
	-2.1 -5 -5.4 -6.8 -7.6 -6 RC fill}!
/trl{	/Times-BoldItalic 16 selectfont M -4 2 RM(tr)show}!
/fng{/Bookman-Demi 8 selectfont M -3 1 RM show}!
/dacs{/Times-Roman 16 selectfont 3 add M showc}!
/crdc{/Times-Italic 14 selectfont 5 add M show}!
/brth{/Times-BoldItalic 30 selectfont 6 add M(,)show}!
/pf{/Times-BoldItalic 16 selectfont 5 add M show}!
/sfz{	M -7 5 RM pop
	/Times-Italic 14 selectfont(s)show
	/Times-BoldItalic 16 selectfont(f)show
	/Times-Italic 14 selectfont(z)show}!
/cresc{	1 SLW M dup 5 RM
	defl 1 and 0 eq
	{dup neg 4 RL 4 RL}
	{dup neg 2.2 RL 0 3.6 RM 2.2 RL}
	ifelse stroke}!
/dim{	1 SLW 5 add M
	defl 2 and 0 eq
	{dup 4 RL neg 4 RL}
	{dup 2.2 RL 0 3.6 RM neg 2.2 RL}
	ifelse stroke}!
/o8va{	M
	defl 1 and 0 eq
	{14 sub currentpoint
	-5 0 RM /Times-BoldItalic 12 selectfont(8)show
	0 4 RM /Times-BoldItalic 10 selectfont(va)show
	M 14 0 RM}if 0 6 RM
	[6] 0 setdash 5 sub 0 RL currentpoint stroke [] 0 setdash
	M defl 2 and 0 eq
	{0 -6 RL stroke}if}!
/o8vb{	M
	defl 1 and 0 eq
	{8 sub currentpoint
	-5 0 RM /Times-BoldItalic 12 selectfont(8)show
	0 4 RM /Times-BoldItalic 10 selectfont(vb)show
	M 8 0 RM}if
	[6] 0 setdash 5 sub 0 RL currentpoint stroke [] 0 setdash
	M defl 2 and 0 eq
	{0 6 RL stroke}if}!
/dplus{	1.2 SLW 0.5 add M 0 6 RL -3 -3 RM 6 0 RL stroke}!
/turnx{	2 copy turn .6 SLW 1.5 add M 0 9 RL stroke}!
/lphr{1.2 SLW M 0 -18 RL stroke}!
/mphr{1.2 SLW M 0 -12 RL stroke}!
/sphr{1.2 SLW M 0 -6 RL stroke}!
/ltr{	gsave 4 add T
	0 6 3 -1 roll{
		2{
			0 0.4 M
			2 1.9 3.4 2.3 3.9 0 C
			2.1 0 L
			1.9 0.8 1.4 0.7 0 -0.4 C
			fill
			180 rotate -6 0 T
		}repeat
		pop 6 0 T
	}for
	grestore}!
/arp{gsave 90 rotate exch neg ltr grestore}!
/gliss{	gsave 2 copy T
exch 4 -1 roll exch sub 3 1 roll sub
2 copy exch atan dup rotate
exch pop cos div
8 0 M 14 sub 0 RL stroke grestore}!
/glisq{	gsave 2 copy T
exch 4 -1 roll exch sub 3 1 roll sub
2 copy exch atan dup rotate
exch pop cos div
17 sub 8 -4 ltr grestore}!
/wedge{1 add M -1.5 5 RL 3 0 RL -1.5 -5 RL fill}!
/opend{dlw M currentpoint 3 add 2.5 -90 270 arc stroke}!
/snap{	dlw 2 copy M -3 6 RM
	0 5 6 5 6 0 RC
	0 -5 -6 -5 -6 0 RC
	5 add M 0 -6 RL stroke}!
/thumb{	dlw 2 copy M -2.5 7 RM
	0 6 5 6 5 0 RC
	0 -6 -5 -6 -5 0 RC
	2 add M 0 -4 RL stroke}!
/trem{	M -4.5 0 RM{
		currentpoint
		9 3 RL 0 -3 RL -9 -3 RL 0 3 RL
		fill 5.4 sub M
	}repeat}!
/hl{	.8 SLW M -6 0 RM 12 0 RL stroke}!
/hl1{	.8 SLW M -7 0 RM 14 0 RL stroke}!
/hl2{	.7 SLW M -9 0 RM 18 0 RL stroke}!
/gsc{gsave y T .8 dup scale 0 0}!
/uflat{<95200028
	0064000001b802ee
	006402ea
	008402ea
	0084000c
	00640008
	00840154
	00b2019c011c01ae01540168
	01b800fa00dc00220084000c
	00840028
	00ba0028014c00f60106014a
	00d401860084014e00840128
	><0b00010303030a0105050105050a>}cvlit def
/unat{<95200022
	003cff42013602ee
	006002ee
	004002ee
	00400022
	0060002a
	01160060
	0116ff46
	0136ff46
	01360208
	011401fe
	006001cc
	006002ee
	0060009e
	0060015c
	01160190
	011600d4
	><0b00012a030a0123030a>}cvlit def
/usharp{<95200024
	003cff42019a02ee
	008802be
	0088ff44
	00a8ff44
	00a802be
	0128ff76
	0148ff76
	014802ee
	012802ee
	004001d0
	0040015c
	019201bc
	01920230
	00400076
	00400002
	01920064
	019200d6
	><0b000123030a0123030a0123030a0123030a>}cvlit def
/udblesharp{<95200046
	003c006e019001c2
	00f0011a
	01180140013a015e018e015e
	018e01be
	012e01be
	012e016a0110014800ea0122
	00c2014800a4016a00a401be
	004401be
	0044015e
	009a015e00bc014000e2011a
	00bc00f4009a00d6004400d6
	00440076
	00a40076
	00a400ca00c200ec00ea0112
	011000ec012e00ca012e0076
	018e0076
	018e00d6
	013a00d6011800f400f0011a
	><0b0001050303050503030505030305050303050a>}cvlit def
/udbleflat{<9520004c
	00140000022602ee
	001402ea
	002c02ea
	002c000c
	00140008
	002c0154
	004e019c009e01ae00c80168
	011300fa00660022002c000c
	002c0028
	0054002800c200f6008d014a
	00680186002c014e002c0128
	010e02ea
	012602ea
	0126000c
	010e0008
	01260154
	0148019c019801ae01c20168
	020d00fa016000220126000c
	01260028
	014e002801bc00f60187014a
	016201860126014e01260128
	><0b000123030a0105050105050a0123030a0105050105050a>}cvlit def
/sh1{	gsave T .9 SLW
	0 -7.8 M 0 15.4 RL stroke
	-1.8 -2.7 M 3.6 1.1 RL 0 -2.2 RL -3.6 -1.1 RL 0 2.2 RL fill
	-1.8 3.7 M 3.6 1.1 RL 0 -2.2 RL -3.6 -1.1 RL 0 2.2 RL fill
	grestore}!
/sh513{	gsave T .8 SLW
	-2.5 -8.7 M 0 15.4 RL
	0 -7.8 M 0 15.4 RL
	2.5 -6.9 M 0 15.4 RL stroke
	-3.7 -3.1 M 7.4 2.2 RL 0 -2.2 RL -7.4 -2.2 RL 0 2.2 RL fill
	-3.7 3.2 M 7.4 2.2 RL 0 -2.2 RL -7.4 -2.2 RL 0 2.2 RL fill
	grestore}!
/ft1{gsave -1 1 scale exch neg exch ft0 grestore}!
/ftx{	-1.4 2.7 RM
	5.7 3.1 5.7 -3.6 0 -6.7 RC
	3.9 4 4 7.6 0 5.8 RC
	currentpoint fill 7.1 add M
	dlw 0 -12.4 RL stroke}!
/ft513{2 copy gsave -1 1 scale exch neg 3 add exch M ftx grestore
	M 1.5 0 RM ftx}!
/sh4tb[/.notdef/sh1/sh0/sh513/dsh0]def
/sh4{sh4tb exch get cvx exec}!
/ft4tb[/.notdef/ft1/ft0/ft513/dft0]def
/ft4{ft4tb exch get cvx exec}!
/bar{M 1 SLW 0 exch RL stroke}!
/dotbar{[5] 0 setdash bar [] 0 setdash}!
/thbar{3 -1 roll 3 exch rectfill}!
/rdots{	2 copy 9 add M currentpoint 1.2 0 360 arc
	15 add M currentpoint 1.2 0 360 arc fill}!
/pmsig{0.3 SLW 12 add M currentpoint 5 0 360 arc stroke}!
/pMsig{2 copy pmsig 12 add M currentpoint 1.3 0 360 arc fill}!
/imsig{0.3 SLW 12 add 2 copy 5 add M 5 60 300 arc stroke}!
/iMsig{2 copy imsig 12 add M currentpoint 1.3 0 360 arc fill}!
/tsig{	1 add M gsave/Times-Bold 16 selectfont 1.2 1 scale
	currentpoint 3 -1 roll showc
	12 add M showc grestore}!
/stsig{	7 add M gsave/Times-Bold 18 selectfont 1.2 1 scale
	showc grestore}!
/sep0{	dlw 0 M 0 RL stroke}!
/bracket{M -5 2 RM currentpoint
	-1.7 2 RM 10.5 -1 12 4.5 12 3.5 RC
	0 -1 -3.5 -5.5 -8.5 -5.5 RC fill
	3 SLW 2 add M
	0 exch neg 8 sub RL currentpoint stroke
	M -1.7 0 RM
	10.5 1 12 -4.5 12 -3.5 RC
	0 1 -3.5 5.5 -8.5 5.5 RC fill}!
/srep{	M -1 -6 RM 11 12 RL 3 0 RL -11 -12 RL -3 0 RL fill}!
/repbra{gsave dlw T 0 -20 M
	0 20 3 index 1 and 1 eq{RL}{RM}ifelse 0
	RL 2 and 2 eq{0 -20 RL}if stroke
	4 exch M show grestore}!
/SL{M RC RL RC closepath fill}!
/dSL{	M [4] 0 setdash .8 SLW RC stroke [] 0 setdash}!
/strw{	gsave 0 -2000 M/strop/show load def 1 setgray str
	0 setgray currentpoint pop/w exch def grestore}!
/jshow{w 0 32 4 -1 roll widthshow}!
/strop/show load def
/arrayshow{{dup type/stringtype eq{strop}{glyphshow}ifelse}forall}def
/gcshow{show}!
/agcshow{arrayshow}!
/box{.6 SLW rectstroke}!
/boxend{currentpoint pop/x exch def}!
/boxmark{currentpoint pop dup x gt
	{/x exch def}{pop}ifelse}!
/boxdraw{x 3 index sub 2 add exch box}!
/gxshow{0 9 3 -1 roll widthshow}!
/anshow{show}!
/aanshow{arrayshow}!
/wln{M .8 SLW 0 RL stroke}!
/hyph{	.8 SLW 3 add M
	dup cvi 20 idiv 3 mul 25 add
	1 index cvi exch idiv 1 add exch 1 index div
	dup 4 sub 3 1 roll .5 mul 2 sub 0 RM
	{4 0 RL dup 0 RM}repeat stroke pop}!
/lyshow{show}!
/alyshow{arrayshow}!
/pfthd{/x 2 index def/y 1 index def dsh0
	.7 SLW x y M x y 4 0 360 arc stroke}!
/pdshhd{pshhd}!
/pdfthd{pfthd}!
/ghd{	xymove
	1.7 1.5 RM
	-1.32 2.31 -5.94 -0.33 -4.62 -2.64 RC
	1.32 -2.31 5.94 0.33 4.62 2.64 RC fill}!
/gua{x y M -1 4 RM RL stroke}!
/gda{x y M -5 -4 RM RL stroke}!
/ghl{	.6 SLW M -3.5 0 RM 7 0 RL stroke}!
/gsl{dlw M RC stroke}!
/custos{2 copy M -4 0 RM 2 2.5 RL 2 -2.5 RL 2 2.5 RL 2 -2.5 RL
	-2 -2.5 RL -2 2.5 RL -2 -2.5 RL -2 2.5 RL fill
	M 3.5 0 RM 5 7 RL dlw stroke}!
/glypharray{{glyphshow}forall}!
/showerror{gsave 1 0.7 0.7 setrgbcolor 2.5 SLW newpath
	30 0 360 arc stroke grestore}!
/pdfmark where{pop}{userdict/pdfmark/cleartomark load put}ifelse
0 setlinecap 0 setlinejoin
/hbrce{	-2.5 1 RM
	-4.5 -4.6 -7.5 -12.2 -4.4 -26.8 RC
	3.5 -14.3 3.2 -21.7 -2.1 -24.2 RC
	7.4 2.4 7.3 14.2 3.5 29.5 RC
	-2.7 9.5 -1.5 16.2 3 21.5 RC
	fill}!
/brace{	gsave T 0 0 M .01 mul 1 exch scale hbrce
	0 -100 M 1 -1 scale hbrce grestore}!
/sgno{	3 add M currentpoint currentpoint currentpoint
	1.5 -1.7 6.4 0.3 3 3.7 RC
	-10.4 7.8 -8 10.6 -6.5 11.9 RC
	4 1.9 5.9 -1.7 4.2 -2.6 RC
	-1.3 -0.7 -2.9 1.3 -0.7 2 RC
	-1.5 1.7 -6.4 -0.3 -3 -3.7 RC
	10.4 -7.8 8 -10.6 6.5 -11.9 RC
	-4 -1.9 -5.9 1.7 -4.2 2.6 RC
	1.3 0.7 2.9 -1.3 0.7 -2 RC
	fill
	M 0.8 SLW -6 1.2 RM 12.6 12.6 RL stroke
	7 add exch 6 sub exch 1.2 0 360 arc fill
	8 add exch 6 add exch 1.2 0 360 arc fill}!
/dacoda{2 1 roll 10 add 2 1 roll dup 3 -1 roll dup 3 1 roll -23 add 4 1 roll
	1 SLW 2 add 2 copy M 0 20 RL
	2 copy M -10 10 RM 20 0 RL stroke
	10 add 6 0 360 arc 1.7 SLW stroke
	/Times-Roman 16 selectfont 7 add M (Da) showc}!
/coda{	1 SLW 2 add 2 copy M 0 20 RL
	2 copy M -10 10 RM 20 0 RL 1.1 SLW stroke
	exch -7 add exch (O) 3 1 roll /Times-Bold 18 selectfont 4 add M show}!
/utclef{<95200072
	0000ff2e01c2030c
	00ac0056
	0064007f006400f400e00112
	0176011c01bc0056013a0012
	00c8ffde002700120015009a
	0006014f0072017f00f101e8
	0149023f0140026d012f02ba
	00fc029900d1025100d60200
	00e700f500fa008a0107ffc2
	010dff6200f4ff3c00baff3b
	006aff3a003cff98007dffc0
	00d2ffe90102ff5b009cff57
	00b3ff4600f8ff3200f6ffb3
	00ec009200cf010900c4021c
	00c4027600c402be01240304
	015c02bc0163021e013a01e3
	00f001790039013b003b00a7
	0044000e00cfffee01370022
	018d0063015400e200e700d2
	00a000c6007e008f00ac0056
	><0b000132050a>}cvlit def
/tclef{gsave T -10 -6 T .045 dup scale utclef ufill grestore}!
/ucclef{<95200066
	006effbe01e70256
	00d10108
	00d10002
	00c40002
	00c40213
	00d10213
	00d10113
	00ea012700fa013701100180
	011e0161011d014d0148013a
	01a2011801a80244011f01f3
	015301e0013a01a3011401a6
	00ba01cc01350256019f01eb
	01e7019c01a000fa01190131
	0109010a
	011900e4
	01a0011b01e70079019f002a
	0135ffbe00ba00490114006f
	013a007201530035011f0022
	01a8ffd101a200fd014800db
	011d00c8011b00bd0110009b
	00fa00e400ea00f400d10108
	006e0213
	00a70213
	00a70002
	006e0002
	006e0213
	><0b000125032605220326050a0124030a>}cvlit def
/cclef{gsave T -12 -12 T .045 dup scale ucclef ufill grestore}!
/ubclef{<95200046
	00000050019a0244
	00010057
	007d007a00df00a500ff0143
	012a022700580239003f01aa
	007a01fa00dc0194009b015c
	005d012d00280172003101b4
	00460241013f023c01430180
	014200d100d9007800010057
	01660151
	016601750199017301990151
	0199012c0166012d01660151
	016401d2
	016401f6019701f4019701d2
	019701ac016401ad016401d2
	><0b000126050a0122050a0122050a>}cvlit def
/bclef{gsave T -10 -18 T .045 dup scale ubclef ufill grestore}!
/pclef{	exch 2.7 sub exch -9 add 5.4 18 1.4 SLW rectstroke}!
/spclef{pclef}!
/stclef{gsave T -10 -6 T .037 dup scale utclef ufill grestore}!
/scclef{gsave T -12 -10 T .037 dup scale ucclef ufill grestore}!
/sbclef{gsave T -10 -15 T .037 dup scale ubclef ufill grestore}!
/csig{	M
	6 5.3 RM
	0.9 0 2.3 -0.7 2.4 -2.2 RC
	-1.2 2 -3.6 -0.1 -1.6 -1.7 RC
	2 -1 3.8 3.5 -0.8 4.7 RC
	-2 0.4 -6.4 -1.3 -5.8 -7 RC
	0.4 -6.4 7.9 -6.8 9.1 -0.7 RC
	-2.3 -5.6 -6.7 -5.1 -6.8 0 RC
	-0.5 4.4 0.7 7.5 3.5 6.9 RC
	fill}!
/ctsig{dlw 2 copy csig M 5 -8 RM 0 16 RL stroke}!
/HDD{	dlw HD
	x y M -6 -4 RM 0 8 RL
	12 0 RM 0 -8 RL stroke}!
/breve{	xymove
	2.5 SLW -6 -2.7 RM 12 0 RL
	0 5.4 RM -12 0 RL stroke
	dlw x y M -6 -5 RM 0 10 RL
	12 0 RM 0 -10 RL stroke}!
/HD{	xymove
	-2.7 1.4 RM
	1.5 2.8 6.9 0 5.3 -2.7 RC
	-1.5 -2.8 -6.9 0 -5.3 2.7 RC
	8.3 -1.4 RM
	0 1.5 -2.2 3 -5.6 3 RC
	-3.4 0 -5.6 -1.5 -5.6 -3 RC
	0 -1.5 2.2 -3 5.6 -3 RC
	3.4 0 5.6 1.5 5.6 3 RC fill}!
/Hd{	xymove
	3 1.6 RM
	-1 1.8 -7 -1.4 -6 -3.2 RC
	1 -1.8 7 1.4 6 3.2 RC
	0.5 0.3 RM
	2 -3.8 -5 -7.6 -7 -3.8 RC
	-2 3.8 5 7.6 7 3.8 RC fill}!
/uhd{{	100 -270 640 280
	560 82
	474 267 105 105 186 -80
	267 -265 636 -102 555 82
	}<0b000122050a>}cvlit def
/hd{	/x 2 index def/y 1 index def
	gsave T -7.4 0 T .02 dup scale uhd ufill grestore}!
/ft0{	gsave T -3.5 -3.5 T .018 dup scale uflat ufill grestore}!
/nt0{	gsave T -3 -5 T .018 dup scale unat ufill grestore}!
/sh0{	gsave T -4 -5 T .018 dup scale usharp ufill grestore}!
/dsh0{	gsave T -4 -5 T .018 dup scale udblesharp ufill grestore}!
/pshhd{/x 2 index def/y 1 index def dsh0}!
/dft0{	gsave T -4 -3.5 T .018 dup scale udbleflat ufill grestore}!
/accent{1.2 SLW M -4 1 RM 8 2 RL -8 2 RL stroke}!
/marcato{M -3 0 RM 3 7 RL 3 -7 RL -1.5 0 RL -1.8 4.2 RL -1.7 -4.2 RL fill}!
/hld{	1.5 add 2 copy 1.5 add M currentpoint 1.3 0 360 arc
	M -7.5 0 RM
	0 11.5 15 11.5 15 0 RC
	-0.25 0 RL
	-1.25 9 -13.25 9 -14.5 0 RC
	fill}!
/r00{	xymove -1.5 -6 RM currentpoint 3 12 rectfill}!
/r0{	xymove -1.5 0 RM currentpoint 3 6 rectfill}!
/r1{	xymove -3.5 3 RM currentpoint 7 3 rectfill}!
/r2{	xymove -3.5 0 RM currentpoint 7 3 rectfill}!
/r4{	xymove
	-1 8.5 RM
	3.6 -5.1 RL
	-2.1 -5.2 RL
	2.2 -4.3 RL
	-2.6 2.3 -5.1 0 -2.4 -2.6 RC
	-4.8 3 -1.5 6.9 1.4 4.1 RC
	-3.1 4.5 RL
	1.9 5.1 RL
	-1.5 3.5 RL
	fill}!
/r8e{	-1.5 -1.5 -2.4 -2 -3.6 -2 RC
	2.4 2.8 -2.8 4 -2.8 1.2 RC
	0 -2.7 4.3 -2.4 5.9 -0.6 RC
	fill}!
/r8{	xymove
	.5 SLW 3.3 4 RM
	-3.4 -9.6 RL stroke
	x y M 3.4 4 RM r8e}!
/r16{	xymove
	.5 SLW 3.3 4 RM
	-4 -15.6 RL stroke
	x y M 3.4 4 RM r8e
	x y M 1.9 -2 RM r8e}!
/r32{	xymove
	.5 SLW 4.8 10 RM
	-5.5 -21.6 RL stroke
	x y M 4.9 10 RM r8e
	x y M 3.4 4 RM r8e
	x y M 1.9 -2 RM r8e}!
/r64{	xymove
	.5 SLW 4.8 10 RM
	-7 -27.6 RL stroke
	x y M 4.9 10 RM r8e
	x y M 3.4 4 RM r8e
	x y M 1.9 -2 RM r8e
	x y M 0.4 -8 RM r8e}!
/r128{	xymove
	.5 SLW 5.8 16 RM
	-8.5 -33.6 RL stroke
	x y M 5.9 16 RM r8e
	x y M 4.4 10 RM r8e
	x y M 2.9 4 RM r8e
	x y M 1.4 -2 RM r8e
	x y M -0.1 -8 RM r8e}!
/mrest{	M currentpoint 1 SLW
	-20 -6 RM 0 12 RL 40 0 RM 0 -12 RL stroke
	M 5 SLW -20 0 RM 40 0 RL stroke}!
/mrep{	2 copy 2 copy
	M -5 3 RM currentpoint 1.4 0 360 arc
	M 5 -3 RM currentpoint 1.4 0 360 arc
	M -7 -6 RM 11 12 RL 3 0 RL -11 -12 RL -3 0 RL fill}!
/mrep2{	2 copy 2 copy
	M -5 6 RM currentpoint 1.4 0 360 arc
	M 5 -6 RM currentpoint 1.4 0 360 arc fill
	M 1.8 SLW
	-7 -8 RM 14 10 RL -14 -4 RM 14 10 RL stroke}!
/turn{	M 5.2 8 RM
	1.4 -0.5 0.9 -4.8 -2.2 -2.8 RC
	-4.8 3.5 RL
	-3 2 -5.8 -1.8 -3.6 -4.4 RC
	1 -1.1 2 -0.8 2.1 0.1 RC
	0.1 0.9 -0.7 1.2 -1.9 0.6 RC
	-1.4 0.5 -0.9 4.8 2.2 2.8 RC
	4.8 -3.5 RL
	3 -2 5.8 1.8 3.6 4.4 RC
	-1 1.1 -2 0.8 -2.1 -0.1 RC
	-0.1 -0.9 0.7 -1.2 1.9 -0.6 RC
	fill}!
/umrd{	4 add M
	2.2 2.2 RL 2.1 -2.9 RL 0.7 0.7 RL
	-2.2 -2.2 RL -2.1 2.9 RL -0.7 -0.7 RL
	-2.2 -2.2 RL -2.1 2.9 RL -0.7 -0.7 RL
	2.2 2.2 RL 2.1 -2.9 RL 0.7 0.7 RL fill}!
/lmrd{	2 copy umrd M .6 SLW 0 8 RL stroke}!
/ped{	/Times-BoldItalic 16 selectfont M -10 2 RM(Ped)show}!
/pedoff{	/Times-BoldItalic 16 selectfont M -4 2 RM(*)show}!
/longa{	xymove
	2.5 SLW -6 -2.7 RM 12 0 RL
	0 5.4 RM -12 0 RL stroke
	dlw x y M -6 -5 RM 0 10 RL
	12 0 RM 0 -16 RL stroke}!
/su{dlw x y M 3.5 1.0 RM 1.0 sub 0 exch RL stroke}!
/sd{dlw x y M -3.5 -1.0 RM 1.0 add 0 exch RL stroke}!
/sfu{	dlw x y M 3.5 1.0 RM
	1.0 sub 0 exch RL currentpoint stroke
	M dup 1 eq{
		pop
		0.6 -5.6 9.6 -9 5.6 -18.4 RC
		1.6 6 -1.3 11.6 -5.6 12.8 RC fill
	  }{
		1 sub{	currentpoint
			0.9 -3.7 9.1 -6.4 6 -12.4 RC
			1 5.4 -4.2 8.4 -6 8.4 RC
			fill 5.4 sub M
		}repeat
		1.2 -3.2 9.6 -5.7 5.6 -14.6 RC
		1.6 5.4 -1 10.2 -5.6 11.4 RC fill
	  }ifelse}!
/sfd{	dlw x y M -3.5 -1.0 RM
	1.0 add 0 exch RL currentpoint stroke
	M dup 1 eq{
		pop
		0.6 5.6 9.6 9 5.6 18.4 RC
		1.6 -6 -1.3 -11.6 -5.6 -12.8 RC fill
	  }{
		1 sub{	currentpoint
			0.9 3.7 9.1 6.4 6 12.4 RC
			1 -5.4 -4.2 -8.4 -6 -8.4 RC
			fill 5.4 add M
		}repeat
		1.2 3.2 9.6 5.7 5.6 14.6 RC
		1.6 -5.4 -1 -10.2 -5.6 -11.4 RC fill
	  }ifelse}!
/sfs{	dup 0 lt{
		dlw x y M -3.5 -1.0 RM
		1.0 add 0 exch RL currentpoint stroke
		M{	currentpoint
			7 3.2 RL
			0 3.2 RL
			-7 -3.2 RL
			fill 5.4 add M
		}repeat
	}{
		dlw x y M 3.5 1.0 RM
		1.0 sub 0 exch RL currentpoint stroke
		M{	currentpoint
			7 -3.2 RL
			0 -3.2 RL
			-7 3.2 RL
			fill 5.4 sub M
		}repeat
	}ifelse}!
/gu{	.6 SLW x y M
	2.3 0 RM 0 exch RL stroke}!
/gd{	.6 SLW x y M
	-2.3 0 RM 0 exch RL stroke}!
/sgu{	.6 SLW x y M 2.3 0 RM
	0 exch RL currentpoint stroke
	M dup 1 eq{
		pop
		0.6 -3.4 5.6 -3.8 3 -10 RC
		1.2 4.4 -1.4 7 -3 7 RC fill
	  }{
		{	currentpoint
			1 -3.2 5.6 -2.8 3.2 -8 RC
			1.4 4.8 -2.4 5.4 -3.2 5.2 RC
			fill 3.5 sub M
		}repeat
	  }ifelse}!
/sgd{	.6 SLW x y M -2.3 0 RM
	0 exch RL currentpoint stroke
	M dup 1 eq{
		pop
		0.6 3.4 5.6 3.8 3 10 RC
		1.2 -4.4 -1.4 -7 -3 -7 RC fill
	  }{
		{	currentpoint
			1 3.2 5.6 2.8 3.2 8 RC
			1.4 -4.8 -2.4 -5.4 -3.2 -5.2 RC
			fill 3.5 add M
		}repeat
	  }ifelse}!
/sgs{	.6 SLW x y M 2.3 0 RM
	0 exch RL currentpoint stroke
	M{	currentpoint
		3 -1.5 RL 0 -2 RL -3 1.5 RL
		closepath fill 3 sub M
	}repeat}!
/mkfont{findfont dup length 1 add dict begin
	{1 index/FID ne{def}{pop pop}ifelse}forall
	CharStrings/double_sharp known not{
	    /CharStrings CharStrings dup length dict copy def
	    FontMatrix 0 get 1 eq{
		CharStrings/sharp{pop .46 0 setcharwidth .001 dup scale usharp ufill}bind put
		CharStrings/flat{pop .46 0 setcharwidth .001 dup scale uflat ufill}bind put
		CharStrings/natural{pop .40 0 setcharwidth .001 dup scale unat ufill}bind put
		CharStrings/double_sharp{pop .46 0 setcharwidth .001 dup scale udblesharp ufill}bind put
		CharStrings/double_flat{pop .50 0 setcharwidth .001 dup scale udbleflat ufill}bind put
	    }{
		CharStrings/sharp{pop 460 0 setcharwidth usharp ufill}bind put
		CharStrings/flat{pop 460 0 setcharwidth uflat ufill}bind put
		CharStrings/natural{pop 400 0 setcharwidth unat ufill}bind put
		CharStrings/double_sharp{pop 460 0 setcharwidth udblesharp ufill}bind put
		CharStrings/double_flat{pop 500 0 setcharwidth udbleflat ufill}bind put
	    }ifelse
	}if currentdict definefont pop end}!
/Helvetica-utf8/Helvetica mkfont
/F0{/Helvetica-utf8 exch selectfont}!
/Times-Italic-utf8/Times-Italic mkfont
/F1{/Times-Italic-utf8 exch selectfont}!
/Times-Roman-utf8/Times-Roman mkfont
/F2{/Times-Roman-utf8 exch selectfont}!
/Times-Bold-utf8/Times-Bold mkfont
/F3{/Times-Bold-utf8 exch selectfont}!
/setpagedevice where{pop
	<</PageSize[612 792]>>setpagedevice}if
%%EndSetup
%%Page: 1 1
gsave 0.75 dup scale 0 1018.2 T
% --- width 681.6
67.20 0 T
0 -22.00 T
% --- xref 3
0 -26.00 T
% --- title Greenville Trestle High
340.8 4.0 M  20.0 F2 (Greenville Trestle High)showc
0 -6.00 T
0 -14.00 T
681.6 0 M  14.0 F1 (Jimmy Jett)showr
0 -6.00 T
% --- font 20.0 F2 
86.4 -17.0 M  15.0 F3 (Allegro)show
gsave 0.70 dup scale 8 3 RM currentpoint hd 1 21 sfu grestore 14.7 0 RM
(= )show
(200)show
/y0{-65.0 add}!
/yns0{-65.0 add}!
24.0 153.8 -65.0 bar 
24.0 457.1 -65.0 bar 
24.0 681.6 -65.0 bar 
dlw 681.6 0.0 -65.0 M 0 RL 681.6 0.0 -59.0 M 0 RL 681.6 0.0 -53.0 M 0 RL 681.6 0.0 -47.0 M 0 RL 681.6 0.0 -41.0 M 0 RL stroke
-3.99 -5.33 -17.27 -3.90 -21.26 2.32 0 -0.22 3.35 -4.22 17.91 -5.66 21.26 -2.10 261.9 -3.0 y0 SL
12.0 F0 176.1 32.4 yns0 M (D)gcshow
339.3 32.4 yns0 M (D7)gcshow
479.8 32.4 yns0 M (G)gcshow
627.7 32.4 yns0 M (D)gcshow
/y{-27.1 yns0}! 62.0 y M  13.0 F3 (1. I)lyshow
118.7 y M (re-)lyshow
163.6 y M (mem)lyshow
15.0 197.7 y hyph 212.6 y M (ber)lyshow
254.6 y M (as)lyshow
21.7 269.0 y wln 304.8 y M (a)lyshow
334.8 y M (boy)lyshow
384.1 y M (how)lyshow
425.1 y M (in)lyshow
468.7 y M (won)lyshow
13.6 499.0 y hyph 512.7 y M (der)lyshow
9.4 536.9 y hyph 546.3 y M (ment)lyshow
585.1 y M (and)lyshow
620.4 y M (joy,)lyshow

/y{-41.4 yns0}! 62.0 y M (2. On)lyshow
119.3 y M (the)lyshow
168.4 y M (riv)lyshow
22.2 190.4 y hyph 212.6 y M (er)lyshow
18.5 230.1 y hyph 248.5 y M (bank)lyshow
12.6 278.1 y wln 300.8 y M (I'd)lyshow
331.4 y M (stand)lyshow
383.8 y M (with)lyshow
426.9 y M (a)lyshow
470.8 y M (cane)lyshow
513.0 y M (pole)lyshow
553.0 y M (in)lyshow
586.0 y M (my)lyshow
618.2 y M (hand)lyshow

/y{-55.7 yns0}! 62.0 y M (3. When)lyshow
119.3 y M (the)lyshow
165.1 y M (lone)lyshow
12.7 195.4 y hyph 208.1 y M (some)lyshow
247.3 y M (whist)lyshow
10.7 279.9 y wln 301.1 y M (les)lyshow
329.6 y M (whine)lyshow
391.7 y M (I)lyshow
422.7 y M (get)lyshow
466.9 y M (ramb)lyshow
12.1 501.8 y hyph 513.9 y M (ling)lyshow
551.8 y M (on)lyshow
586.0 y M (my)lyshow
617.6 y M (mind)lyshow

12.0 -59.0  tclef
27.0 -41.0 sh0 32.5 -50.0 sh0 
(4)(4) 48.5 -65.0 tsig
91.4 -62.0 hd 1 21.0 sfu
128.7 -65.0 hd 1 21.0 sfu
179.9 -62.0 hd 1 21.0 sfu
222.3 -56.0 hd 1 21.0 sfu
3.2 23.4 -2.4 265.0 -39.8 bm
3.2 22.8 -2.4 265.4 -44.8 bm
261.9 -62.0 hd 21.2 su
284.6 -65.0 hd 21.8 su
309.9 -68.0 hd 1 21.0 sfu
345.7 -62.0 hd 21.0 su
396.3 -62.0 hd 1 21.0 sfu
432.1 -65.0 hd 1 21.0 sfu
483.6 -68.0 hd 7.7 0 dt 1 21.0 sfu
525.1 -65.0 hd 2 22.0 sfu
559.9 -68.0 hd 1 21.0 sfu
595.7 -71.0 hl 595.7 -74.0 hd 1 21.0 sfu
631.5 -68.0 Hd 21.0 su
0 -124.90 T
/y0{-47.0 add}!
/yns0{-47.0 add}!
24.0 457.1 -47.0 bar 
24.0 681.6 -47.0 bar 
dlw 681.6 0.0 -47.0 M 0 RL 681.6 0.0 -41.0 M 0 RL 681.6 0.0 -35.0 M 0 RL 681.6 0.0 -29.0 M 0 RL 681.6 0.0 -23.0 M 0 RL stroke
12.0 F0 46.7 32.4 yns0 M (D)gcshow
479.6 32.4 yns0 M (A)gcshow
/y{-30.1 yns0}! 64.1 y M  13.0 F3 (1. I'd)lyshow
129.1 y M (watch)lyshow
182.3 y M (the)lyshow
222.2 y M (trains)lyshow
316.7 y M (as)lyshow
365.4 y M (they)lyshow
416.2 y M (go)lyshow
473.8 y M (by.)lyshow
609.3 y M (And)lyshow
649.0 y M (the)lyshow

/y{-44.4 yns0}! 64.1 y M (2. and)lyshow
129.1 y M (watch)lyshow
182.3 y M (the)lyshow
217.0 y M (freight trains)lyshow
312.0 y M (up a)lyshow
361.8 y M (gainst)lyshow
415.0 y M (the)lyshow
471.7 y M (sky.)lyshow
607.8 y M (With)lyshow
649.0 y M (the)lyshow

/y{-58.7 yns0}! 64.1 y M (3. Lord I)lyshow
131.8 y M (wish)lyshow
179.6 y M (they)lyshow
226.1 y M (still)lyshow
305.4 y M (sound)lyshow
24.8 344.9 y hyph 369.7 y M (ed)lyshow
413.4 y M (that)lyshow
470.2 y M (way.)lyshow
612.6 y M (As)lyshow
653.9 y M (I)lyshow

12.0 -41.0  tclef
27.0 -23.0 sh0 32.5 -32.0 sh0 
50.5 -35.0 r8 
94.2 -50.0 hd 1 21.0 sfu
144.9 -50.0 hd 1 21.0 sfu
191.7 -53.0 hl 191.7 -56.0 hd 2 22.0 sfu
237.0 -50.0 hd 7.7 0 dt 1 21.0 sfu
323.9 -50.0 hd 1 21.0 sfu
377.5 -47.0 hd 1 21.0 sfu
424.4 -44.0 hd 1 21.0 sfu
483.4 -53.0 hl 483.4 -59.0 hl 483.4 -59.0 Hd 8.7 3 dt 24.0 su
579.3 -35.0 r8 
621.4 -44.0 hd 2 22.0 sfu
658.4 -47.0 hd 2 22.0 sfu
0 -109.90 T
/y0{-47.0 add}!
/yns0{-47.0 add}!
24.0 400.7 -47.0 bar 
dlw 681.6 0.0 -47.0 M 0 RL 681.6 0.0 -41.0 M 0 RL 681.6 0.0 -35.0 M 0 RL 681.6 0.0 -29.0 M 0 RL 681.6 0.0 -23.0 M 0 RL stroke
-4.64 -5.38 -20.10 -3.94 -24.74 2.32 0 -0.22 3.90 -4.26 20.84 -5.70 24.74 -2.10 167.7 -3.0 y0 SL
12.0 F0 69.1 32.4 yns0 M (D)gcshow
264.4 32.4 yns0 M (D7)gcshow
425.8 32.4 yns0 M (G)gcshow
588.2 32.4 yns0 M (D)gcshow
/y{-27.1 yns0}! 42.0 y M  13.0 F3 (1. whist)lyshow
19.9 92.1 y hyph 111.9 y M (le's)lyshow
155.6 y M (lone)lyshow
17.9 182.1 y wln 212.3 y M (some)lyshow
255.1 y M (sound)lyshow
318.3 y M (you)lyshow
355.9 y M (could)lyshow
417.5 y M (hear)lyshow
467.5 y M (for)lyshow
494.9 y M (miles)lyshow
542.9 y M (a)lyshow
19.4 555.8 y hyph 575.2 y M (round,)lyshow

/y{-41.4 yns0}! 42.0 y M (2. black)lyshow
105.6 y M (smoke)lyshow
156.2 y M (trail)lyshow
18.8 181.2 y wln 217.8 y M (in')lyshow
257.8 y M (back)lyshow
321.9 y M (as)lyshow
358.6 y M (they)lyshow
412.1 y M (moved)lyshow
468.7 y M (a)lyshow
15.5 481.6 y hyph 497.1 y M (long)lyshow
541.4 y M (the)lyshow
574.9 y M (tracks,)lyshow

/y{-55.7 yns0}! 42.0 y M (3. turned)lyshow
115.6 y M (to)lyshow
154.7 y M (head)lyshow
16.5 183.5 y wln 217.5 y M (for)lyshow
254.7 y M (home,)lyshow
315.8 y M (Lord)lyshow
356.2 y M (she'd)lyshow
412.7 y M (rumb)lyshow
20.2 448.3 y hyph 468.5 y M (le,)lyshow
497.2 y M (low,)lyshow
540.1 y M (and)lyshow
577.1 y M (moan)lyshow

12.0 -41.0  tclef
27.0 -23.0 sh0 32.5 -32.0 sh0 
72.9 -44.0 hd 1 21.0 sfu
122.5 -38.0 hd 1 21.0 sfu
3.2 26.9 -2.5 170.9 -21.8 bm
3.2 26.2 -2.4 171.2 -26.8 bm
167.7 -44.0 hd 21.2 su
194.0 -47.0 hd 21.8 su
226.6 -50.0 hd 1 21.0 sfu
270.9 -44.0 hd 21.0 su
329.2 -44.0 hd 1 21.0 sfu
370.7 -47.0 hd 1 21.0 sfu
429.6 -50.0 hd 7.7 0 dt 1 21.0 sfu
476.6 -47.0 hd 2 22.0 sfu
509.5 -50.0 hd 1 21.0 sfu
550.8 -53.0 hl 550.8 -56.0 hd 1 21.0 sfu
592.0 -50.0 hd 21.0 su
644.5 -35.0 r8 
0 -106.90 T
/y0{-47.0 add}!
/yns0{-47.0 add}!
24.0 125.2 -47.0 bar 
24.0 512.5 -47.0 bar 
dlw 681.6 0.0 -47.0 M 0 RL 681.6 0.0 -41.0 M 0 RL 681.6 0.0 -35.0 M 0 RL 681.6 0.0 -29.0 M 0 RL 681.6 0.0 -23.0 M 0 RL stroke
-6.22 -5.81 -26.94 -5.81 -33.16 0.23 0 -0.23 5.22 -4.05 27.93 -4.05 33.16 0.00 66.6 -9.0 y0 SL
-6.63 -5.18 -28.74 -2.30 -35.37 4.44 0 -0.24 5.57 -4.74 29.80 -7.62 35.37 -4.20 436.8 -9.0 y0 SL
12.0 F0 336.8 32.4 yns0 M (A)gcshow
534.8 32.4 yns0 M (D)gcshow
/y{-27.1 yns0}! 42.0 y M  13.0 F3 (1. As)lyshow
87.6 y M (they)lyshow
137.5 y M (rolled)lyshow
191.6 y M (a-)lyshow
232.8 y M (cross)lyshow
282.8 y M (that)lyshow
321.8 y M (Green)lyshow
15.4 362.0 y hyph 377.4 y M (ville)lyshow
420.1 y M (Trest)lyshow
13.5 455.0 y hyph 468.5 y M (le)lyshow
524.8 y M (high.)lyshow

/y{-41.4 yns0}! 42.0 y M (2. that)lyshow
26.6 79.1 y wln 140.8 y M (runs)lyshow
191.6 y M (a-)lyshow
232.8 y M (cross)lyshow
282.8 y M (that)lyshow
321.8 y M (Green)lyshow
15.4 362.0 y hyph 377.4 y M (ville)lyshow
420.1 y M (Trest)lyshow
13.5 455.0 y hyph 468.5 y M (le)lyshow
524.8 y M (high.)lyshow

/y{-55.7 yns0}! 42.0 y M (3. to)lyshow
36.5 69.3 y wln 139.3 y M (ward)lyshow
190.5 y M (the)lyshow
233.7 y M (sun)lyshow
25.4 259.5 y hyph 284.9 y M (set)lyshow
333.9 y M (at)lyshow
380.4 y M (the)lyshow
422.8 y M (close)lyshow
467.9 y M (of)lyshow
526.6 y M (day.)lyshow

12.0 -41.0  tclef
27.0 -23.0 sh0 32.5 -32.0 sh0 
66.6 -50.0 hd 2 22.0 sfu
99.7 -50.0 hd 2 22.0 sfu
152.9 -50.0 hd 1 21.0 sfu
199.9 -50.0 hd 1 21.0 sfu
246.8 -44.0 hd 1 21.0 sfu
293.7 -38.0 hd 1 21.0 sfu
340.6 -44.0 hd 1 21.0 sfu
389.8 -47.0 hd 1 21.0 sfu
436.8 -50.0 hd 2 22.0 sfu
475.1 -53.0 hl 475.1 -56.0 hd 7.7 0 dt 1 21.0 sfu
538.6 -50.0 Hd 8.7 0 dt 21.0 su
634.7 -35.0 r8 
0 -106.90 T
0 -17.60 T
0.0 0 M 16.0 F2 (Chorus)show
0 -6.40 T
/y0{-48.0 add}!
/yns0{-48.0 add}!
24.0 95.1 -48.0 bar 
24.0 307.2 -48.0 bar 
24.0 409.7 -48.0 bar 
24.0 615.7 -48.0 bar 
dlw 681.6 0.0 -48.0 M 0 RL 681.6 0.0 -42.0 M 0 RL 681.6 0.0 -36.0 M 0 RL 681.6 0.0 -30.0 M 0 RL 681.6 0.0 -24.0 M 0 RL stroke
-2.87 -5.26 -12.42 -3.82 -15.28 2.32 0 -0.22 2.41 -4.14 12.88 -5.58 15.28 -2.10 328.0 -3.0 y0 SL
12.0 F0 118.1 36.4 yns0 M (G)gcshow
324.1 36.4 yns0 M (D)gcshow
429.1 36.4 yns0 M (D)gcshow
629.4 36.4 yns0 M (A)gcshow
/y{-22.1 yns0}! 42.0 y M  13.0 F3 (But)lyshow
68.5 y M (the)lyshow
103.1 y M (whistl)lyshow
6.8 143.3 y hyph 150.1 y M (es)lyshow
171.5 y M (don't)lyshow
207.2 y M (sound)lyshow
246.6 y M (like)lyshow
273.9 y M (they)lyshow
315.2 y M (used)lyshow
7.5 343.2 y wln 358.4 y M (to.)lyshow
417.7 y M (Late)lyshow
6.8 448.8 y hyph 455.6 y M (ly)lyshow
478.1 y M (not)lyshow
502.4 y M (ma)lyshow
6.8 525.9 y hyph 532.7 y M (ny)lyshow
553.3 y M (trains)lyshow
590.5 y M (go)lyshow
623.7 y M (by.)lyshow

12.0 -42.0  tclef
27.0 -24.0 sh0 32.5 -33.0 sh0 
52.6 -51.0 hd 2 22.0 sfu
78.0 -48.0 hd 2 22.0 sfu
121.9 -42.0 hd 1 21.0 sfu
157.4 -42.0 hd 21.0 su
185.8 -42.0 hd 1 21.0 sfu
222.9 -39.0 hd 21.0 su
257.5 -39.0 hd 1 21.0 sfu
286.0 -39.0 hd 1 21.0 sfu
3.2 17.5 -2.3 331.1 -22.8 bm
3.2 16.8 -2.2 331.5 -27.8 bm
328.0 -45.0 hd 21.2 su
344.7 -48.0 hd 22.0 su
366.7 -51.0 Hd 8.7 0 dt 21.0 su
395.6 -36.0 r8 
432.9 -39.0 hd 1 21.0 sfu
462.6 -39.0 hd 21.0 su
487.8 -45.0 hd 1 21.0 sfu
514.5 -39.0 hd 2 22.0 sfu
540.9 -36.0 hd 7.7 3 dt 1 21.0 sfu
568.2 -39.0 hd 1 21.0 sfu
598.7 -45.0 hd 1 21.0 sfu
633.2 -48.0 Hd 8.7 3 dt 21.0 su
662.1 -36.0 r8 
0 -74.30 T
/y0{-47.0 add}!
/yns0{-47.0 add}!
24.0 84.3 -47.0 bar 
24.0 414.1 -47.0 bar 
dlw 681.6 0.0 -47.0 M 0 RL 681.6 0.0 -41.0 M 0 RL 681.6 0.0 -35.0 M 0 RL 681.6 0.0 -29.0 M 0 RL 681.6 0.0 -23.0 M 0 RL stroke
-4.60 -5.38 -19.94 -3.94 -24.54 2.32 0 -0.22 3.87 -4.26 20.68 -5.70 24.54 -2.10 190.7 -3.0 y0 SL
-4.60 -6.04 -19.94 -7.48 -24.54 -1.88 0 -0.22 3.87 -3.60 20.68 -2.16 24.54 2.10 480.4 -8.1 y0 SL
12.0 F0 105.0 32.4 yns0 M (D)gcshow
434.1 32.4 yns0 M (G)gcshow
611.9 32.4 yns0 M (D)gcshow
/y{-27.1 yns0}! 42.0 y M  13.0 F3 (Hard)lyshow
94.2 y M (times)lyshow
141.8 y M (a)lyshow
22.0 154.7 y hyph 176.7 y M (cross)lyshow
14.9 207.8 y wln 236.2 y M (the)lyshow
274.5 y M (land)lyshow
329.9 y M (mean)lyshow
377.2 y M (no)lyshow
424.0 y M (work)lyshow
469.8 y M (for)lyshow
499.8 y M (a)lyshow
521.1 y M (rail)lyshow
16.2 546.1 y hyph 562.4 y M (road)lyshow
602.2 y M (man.)lyshow

12.0 -41.0  tclef
27.0 -23.0 sh0 32.5 -32.0 sh0 
55.6 -44.0 hd 1 21.0 sfu
108.8 -44.0 hd 1 21.0 sfu
149.7 -38.0 hd 1 21.0 sfu
3.2 26.7 -2.5 193.8 -21.8 bm
3.2 26.0 -2.4 194.2 -26.8 bm
190.7 -44.0 hd 21.2 su
216.7 -47.0 hd 21.8 su
245.6 -50.0 hd 1 21.0 sfu
286.6 -44.0 hd 21.0 su
344.5 -44.0 hd 1 21.0 sfu
385.4 -47.0 hd 1 21.0 sfu
437.9 -50.0 hd 1 21.0 sfu
3.2 26.7 2.5 482.0 -27.3 bm
3.2 26.0 2.4 482.4 -32.2 bm
478.9 -50.0 hd 21.8 su
504.9 -47.0 hd 21.2 su
533.8 -50.0 hd 1 21.0 sfu
574.8 -53.0 hl 574.8 -56.0 hd 1 21.0 sfu
615.7 -50.0 hd 7.7 0 dt 21.0 su
0 -78.30 T
/y0{-47.0 add}!
/yns0{-47.0 add}!
24.0 109.9 -47.0 bar 
24.0 498.7 -47.0 bar 
24.0 681.6 -47.0 bar 
dlw 681.6 0.0 -47.0 M 0 RL 681.6 0.0 -41.0 M 0 RL 681.6 0.0 -35.0 M 0 RL 681.6 0.0 -29.0 M 0 RL 681.6 0.0 -23.0 M 0 RL stroke
12.0 F0 136.6 32.4 yns0 M (D)gcshow
323.5 32.4 yns0 M (A)gcshow
520.3 32.4 yns0 M (D)gcshow
/y{-30.1 yns0}! 42.0 y M  13.0 F3 (And)lyshow
77.6 y M (the)lyshow
121.6 y M (Green)lyshow
14.2 161.7 y hyph 176.0 y M (ville)lyshow
218.0 y M (Trest)lyshow
21.4 252.9 y hyph 274.3 y M (le)lyshow
315.2 y M (now)lyshow
359.4 y M (don't)lyshow
406.0 y M (seem)lyshow
458.7 y M (so)lyshow
510.4 y M (high.)lyshow

12.0 -41.0  tclef
27.0 -23.0 sh0 32.5 -32.0 sh0 
54.1 -53.0 hl 54.1 -59.0 hl 54.1 -59.0 hd 2 24.0 sfu
87.0 -53.0 hl 87.0 -59.0 hl 87.0 -59.0 hd 2 24.0 sfu
140.4 -50.0 hd 1 21.0 sfu
188.4 -50.0 hd 1 21.0 sfu
234.7 -44.0 hd 1 21.0 sfu
281.0 -38.0 hd 1 21.0 sfu
327.3 -44.0 hd 1 21.0 sfu
373.6 -47.0 hd 1 21.0 sfu
419.9 -50.0 hd 1 21.0 sfu
466.2 -53.0 hl 466.2 -56.0 hd 1 21.0 sfu
524.2 -50.0 Hd 21.0 su
616.8 -35.0 r2 
0 -81.30 T
0 -6.40 T
0 -17.60 T
0 -17.60 T
0 -17.60 T
0.0 0 M 16.0 F2 (Copyright 2020 by Samuel S Chessman)show
0 -17.60 T
0.0 0 M(https://gitlab.com/schessman/abc_songs/)show
0 -17.60 T
0.0 0 M(SPDX-License-Identifier: GPL-3.0-or-later)show
0 -6.40 T
grestore
showpage
%%EndPage: 1 1
%%Trailer
%%Pages: 1
%EOF
